# This file uses centimeters as units for non-parametric coordinates.

mtllib pick_axe.mtl
g default
v 0.562796 -0.535404 0.059475
v 0.566699 -0.540268 0.065002
v 0.562796 -0.535402 -0.052049
v 0.566702 -0.540268 -0.057568
v 0.219939 -0.535380 -0.228027
v 0.220658 -0.540268 -0.235214
v 0.001737 -0.535381 0.263245
v 0.001737 -0.540268 0.270547
v 0.237227 -0.535385 0.227118
v 0.237976 -0.540268 0.234298
v 0.555845 0.523193 0.063781
v 0.552030 0.257249 0.058207
v 0.552030 0.257252 -0.053317
v 0.555843 0.523193 -0.058909
v 0.209198 0.257273 -0.229282
v 0.209768 0.523193 -0.236505
v 0.001737 0.523193 0.269141
v 0.001737 0.257272 0.261851
v 0.226488 0.257267 0.225837
v 0.227087 0.523193 0.233038
v 0.673067 0.257320 0.335758
v 0.676959 0.260034 0.329081
v 0.670765 0.523193 0.329748
v 0.672615 0.257562 -0.330440
v 0.670698 0.523193 -0.324273
v 0.676958 0.260035 -0.323712
v 0.306538 0.257277 -0.382693
v 0.306252 0.523193 -0.375442
v 0.001737 0.257281 0.429839
v 0.001737 0.523193 0.422542
v 0.331543 0.257282 0.383124
v 0.331256 0.523193 0.375864
v 0.681701 -0.540268 0.331096
v 0.688215 -0.539364 0.330144
v 0.684585 -0.535392 0.336922
v 0.688209 -0.539366 -0.321000
v 0.681703 -0.540268 -0.323174
v 0.686580 -0.535403 -0.328716
v 0.317156 -0.540268 -0.374156
v 0.317437 -0.535376 -0.381407
v 0.001737 -0.540268 0.423952
v 0.001737 -0.535372 0.431235
v 0.342158 -0.540268 0.377131
v 0.342440 -0.535371 0.384373
v 0.844547 0.129255 0.319388
v 0.844001 0.135036 0.312475
v 0.843763 0.129715 -0.314045
v 0.843994 0.135042 -0.307008
v 4.809366 0.047085 0.092126
v 4.813703 0.048830 0.087663
v 4.807532 0.052096 0.087860
v 4.807245 0.053530 -0.010905
v 4.813394 0.050280 -0.010820
v 4.809059 0.048685 -0.015352
v 0.853247 -0.492874 0.302386
v 0.853263 -0.487902 0.309640
v 4.938323 -0.102187 0.082464
v 4.940043 -0.097179 0.082405
v 4.934421 -0.097594 0.089382
v 0.854077 -0.487797 -0.246704
v 0.853247 -0.492874 -0.239437
v 4.934074 -0.096011 -0.017923
v 4.939751 -0.095805 -0.011015
v 4.938041 -0.100812 -0.011181
v 0.851652 0.124421 0.314447
v 0.851582 0.129363 0.307178
v 0.870095 0.128678 0.306599
v 0.870155 0.124488 0.312762
v 0.876760 0.124061 0.312226
v 0.876690 0.128261 0.306069
v 0.851582 0.129363 -0.301864
v 0.850865 0.124490 -0.309113
v 0.876785 0.128254 -0.300506
v 0.876828 0.123956 -0.306262
v 0.870035 0.124393 -0.306820
v 0.870001 0.128683 -0.301058
v 0.861020 -0.482481 -0.243022
v 0.860095 -0.487750 -0.236060
v 0.875465 -0.478329 -0.213077
v 0.875755 -0.473889 -0.220164
v 0.881363 -0.472220 -0.216491
v 0.881394 -0.476455 -0.209821
v 0.860445 -0.487488 0.297386
v 0.860195 -0.482692 0.304817
v 0.878713 -0.482740 0.303109
v 0.878723 -0.486814 0.296801
v 0.885341 -0.486521 0.296281
v 0.885329 -0.482446 0.302586
v 0.001737 0.257278 -0.256600
v 0.001737 0.523193 -0.263891
v 0.001737 -0.540268 -0.262471
v 0.001737 -0.535375 -0.255187
v 0.001737 -0.535378 -0.423177
v 0.001737 -0.540268 -0.415886
v 0.001737 0.523193 -0.417303
v 0.001737 0.257275 -0.424591
v -0.563227 -0.540268 0.065002
v -0.559323 -0.535404 0.059475
v -0.559323 -0.535402 -0.052049
v -0.563229 -0.540268 -0.057568
v -0.216467 -0.535380 -0.228027
v -0.217185 -0.540268 -0.235214
v -0.233754 -0.535385 0.227118
v -0.234503 -0.540268 0.234298
v -0.548557 0.257249 0.058207
v -0.552372 0.523193 0.063781
v -0.548557 0.257252 -0.053317
v -0.552370 0.523193 -0.058909
v -0.205725 0.257273 -0.229282
v -0.206295 0.523193 -0.236505
v -0.223015 0.257267 0.225837
v -0.223614 0.523193 0.233038
v -0.667292 0.523193 0.329748
v -0.673486 0.260034 0.329081
v -0.669594 0.257320 0.335758
v -0.673485 0.260035 -0.323712
v -0.667225 0.523193 -0.324273
v -0.669143 0.257562 -0.330440
v -0.303065 0.257277 -0.382693
v -0.302779 0.523193 -0.375442
v -0.328070 0.257282 0.383124
v -0.327783 0.523193 0.375864
v -0.681112 -0.535392 0.336922
v -0.684742 -0.539364 0.330144
v -0.678228 -0.540268 0.331096
v -0.683108 -0.535403 -0.328716
v -0.678230 -0.540268 -0.323174
v -0.684736 -0.539366 -0.321000
v -0.313683 -0.540268 -0.374156
v -0.313964 -0.535376 -0.381407
v -0.338685 -0.540268 0.377131
v -0.338967 -0.535371 0.384373
v -0.841074 0.129255 0.319388
v -0.840529 0.135036 0.312475
v -0.840290 0.129715 -0.314045
v -0.840521 0.135042 -0.307008
v -3.999650 0.065672 0.090001
v -4.005820 0.062404 0.089803
v -4.001484 0.060660 0.094266
v -4.001177 0.062260 -0.013211
v -4.005513 0.063855 -0.008679
v -3.999362 0.067104 -0.008764
v -0.849773 -0.492874 0.302386
v -0.849790 -0.487902 0.309640
v -4.126538 -0.084018 0.091523
v -4.132161 -0.083604 0.084545
v -4.130440 -0.088612 0.084604
v -0.850604 -0.487797 -0.246704
v -0.849773 -0.492874 -0.239437
v -4.130159 -0.087237 -0.009041
v -4.131869 -0.082230 -0.008875
v -4.126193 -0.082437 -0.015783
v -0.848109 0.129363 0.307178
v -0.848179 0.124421 0.314447
v -0.873218 0.128261 0.306069
v -0.873286 0.124061 0.312226
v -0.866681 0.124488 0.312762
v -0.866623 0.128678 0.306599
v -0.847084 0.124583 -0.309321
v -0.848109 0.129363 -0.301988
v -0.866527 0.128683 -0.301059
v -0.866615 0.124392 -0.306820
v -0.873415 0.123951 -0.306261
v -0.873312 0.128255 -0.300507
v -0.856668 -0.487715 -0.236005
v -0.855510 -0.483362 -0.244176
v -0.885697 -0.476455 -0.209857
v -0.885686 -0.472269 -0.216485
v -0.879781 -0.473612 -0.219425
v -0.879599 -0.477875 -0.212523
v -0.856721 -0.482707 0.304817
v -0.856922 -0.487526 0.297411
v -0.881855 -0.482448 0.302586
v -0.881965 -0.486520 0.296276
v -0.875340 -0.486814 0.296794
v -0.875240 -0.482741 0.303109
v 2.879360 -0.408420 0.174361
v 2.881040 -0.412717 0.168972
v 2.878484 -0.406376 -0.065746
v 2.876766 -0.401898 -0.071200
v 2.820395 0.000801 -0.104614
v 2.819592 0.005334 -0.100495
v 2.819656 0.004723 0.175048
v 2.820484 0.000175 0.179243
v -2.123192 -0.392361 0.174360
v -2.124987 -0.396665 0.168931
v -2.127105 -0.390449 -0.062249
v -2.125343 -0.385990 -0.067718
v -2.062593 0.010239 -0.100228
v -2.061727 0.014782 -0.096101
v -2.061797 0.014151 0.174991
v -2.062651 0.009591 0.179188
v 0.555845 0.525318 0.063781
v 0.555843 0.525318 -0.058909
v 0.670765 0.525318 0.329748
v 0.670698 0.525318 -0.324273
v 0.306252 0.525318 -0.375442
v 0.209768 0.525318 -0.236505
v 0.331256 0.525318 0.375864
v 0.227087 0.525318 0.233038
v 0.001737 0.525318 0.269141
v 0.001737 0.525318 0.422542
v 0.001737 0.525318 -0.263891
v 0.001737 0.525318 -0.417303
v -0.552370 0.525318 -0.058909
v -0.667225 0.525318 -0.324273
v -0.667292 0.525318 0.329748
v -0.552372 0.525318 0.063781
v -0.302779 0.525318 -0.375442
v -0.206295 0.525318 -0.236505
v -0.327783 0.525318 0.375864
v -0.223614 0.525318 0.233038
v 0.676959 0.260034 0.325618
v 0.670764 0.523193 0.326278
v 0.670764 0.525318 0.326278
v 0.555845 0.525318 0.063130
v 0.555845 0.523193 0.063130
v 0.552030 0.257249 0.057615
v 0.562796 -0.535404 0.058883
v 0.566699 -0.540268 0.064351
v 0.681701 -0.540268 0.327625
v 0.688215 -0.539364 0.326690
v 0.853247 -0.492874 0.299512
v 0.860443 -0.487489 0.294556
v 0.878706 -0.486769 0.294096
v 0.885320 -0.486467 0.293596
v 2.881026 -0.412683 0.167726
v 4.938321 -0.102179 0.081967
v 4.940041 -0.097172 0.081909
v 4.813701 0.048838 0.087140
v 4.807530 0.052103 0.087336
v 2.819655 0.004726 0.173586
v 0.876691 0.128261 0.302852
v 0.870095 0.128678 0.303375
v 0.851582 0.129363 0.303947
v 0.844001 0.135036 0.309189
v 0.676958 0.260035 -0.318233
v 0.670699 0.523193 -0.318784
v 0.670699 0.525318 -0.318784
v 0.555843 0.525318 -0.057879
v 0.555843 0.523193 -0.057879
v 0.552030 0.257252 -0.052381
v 0.562796 -0.535402 -0.051113
v 0.566701 -0.540268 -0.056539
v 0.681702 -0.540268 -0.317683
v 0.688209 -0.539366 -0.315535
v 0.853247 -0.492874 -0.234890
v 0.860098 -0.487748 -0.231583
v 0.875492 -0.478400 -0.208798
v 0.881427 -0.476539 -0.205573
v 2.878506 -0.406429 -0.063776
v 4.938042 -0.100823 -0.010395
v 4.939753 -0.095816 -0.010231
v 4.813396 0.050266 -0.009993
v 4.807248 0.053517 -0.010076
v 2.819592 0.005328 -0.098182
v 0.876785 0.128255 -0.295415
v 0.870001 0.128683 -0.295958
v 0.851582 0.129363 -0.296752
v 0.843994 0.135042 -0.301809
v -0.673485 0.260035 -0.320509
v -0.667226 0.523193 -0.321064
v -0.667226 0.525318 -0.321064
v -0.552370 0.525318 -0.058307
v -0.552370 0.523193 -0.058307
v -0.548557 0.257251 -0.052770
v -0.559323 -0.535402 -0.051502
v -0.563229 -0.540268 -0.056966
v -0.678230 -0.540268 -0.319964
v -0.684736 -0.539366 -0.317805
v -0.849773 -0.492874 -0.236779
v -0.856670 -0.487714 -0.233388
v -0.879579 -0.477919 -0.210025
v -0.885678 -0.476504 -0.207373
v -2.127095 -0.390478 -0.061115
v -4.130160 -0.087244 -0.008582
v -4.131869 -0.082237 -0.008417
v -4.005514 0.063847 -0.008196
v -3.999365 0.067098 -0.008280
v -2.061727 0.014779 -0.094771
v -0.873310 0.128255 -0.297531
v -0.866528 0.128683 -0.298078
v -0.848109 0.129363 -0.298999
v -0.840521 0.135042 -0.303969
v -0.673486 0.260034 0.326305
v -0.667292 0.523193 0.326967
v -0.667292 0.525318 0.326967
v -0.552372 0.525318 0.063260
v -0.552372 0.523193 0.063260
v -0.548557 0.257249 0.057733
v -0.559323 -0.535404 0.059001
v -0.563227 -0.540268 0.064480
v -0.678228 -0.540268 0.328314
v -0.684742 -0.539364 0.327375
v -0.849773 -0.492874 0.300083
v -0.856921 -0.487526 0.295143
v -0.875358 -0.486776 0.294629
v -0.881980 -0.486478 0.294124
v -2.124996 -0.396638 0.167948
v -4.130439 -0.088606 0.084206
v -4.132160 -0.083598 0.084148
v -4.005820 0.062412 0.089384
v -3.999649 0.065678 0.089581
v -2.061797 0.014154 0.173839
v -0.873218 0.128261 0.303490
v -0.866621 0.128678 0.304015
v -0.848109 0.129363 0.304588
v -0.840529 0.135036 0.309841
vt 0.528152 0.538860
vt 0.528582 0.539290
vt 0.504992 0.576820
vt 0.504812 0.576480
vt 0.528192 0.538800
vt 0.528622 0.539220
vt 0.536242 0.528050
vt 0.534922 0.527660
vt 0.530832 0.477650
vt 0.531762 0.477270
vt 0.521922 0.449460
vt 0.522792 0.449130
vt 0.389022 0.352300
vt 0.389182 0.351310
vt 0.415632 0.364030
vt 0.415632 0.364750
vt 0.362762 0.343200
vt 0.362852 0.342220
vt 0.716492 0.458540
vt 0.728692 0.430680
vt 0.765302 0.430190
vt 0.761842 0.454350
vt 0.716422 0.458520
vt 0.728652 0.430690
vt 0.720672 0.429520
vt 0.703602 0.454440
vt 0.675162 0.418050
vt 0.700622 0.402510
vt 0.665542 0.395060
vt 0.692852 0.385300
vt 0.734772 0.271100
vt 0.754102 0.293460
vt 0.729722 0.307370
vt 0.709752 0.284210
vt 0.757852 0.257440
vt 0.775362 0.275710
vt 0.733302 0.508550
vt 0.733132 0.480620
vt 0.760992 0.467930
vt 0.767792 0.484800
vt 0.732332 0.508420
vt 0.730382 0.531140
vt 0.729162 0.530820
vt 0.731902 0.508400
vt 0.732842 0.480520
vt 0.656842 0.491050
vt 0.657792 0.491720
vt 0.652792 0.518640
vt 0.651622 0.518600
vt 0.674372 0.465300
vt 0.636332 0.447030
vt 0.662392 0.432010
vt 0.622252 0.411440
vt 0.649152 0.401080
vt 0.716902 0.229900
vt 0.727562 0.255870
vt 0.694852 0.271540
vt 0.680942 0.244140
vt 0.751942 0.216690
vt 0.761112 0.239680
vt 0.810842 0.553660
vt 0.810072 0.553180
vt 0.832952 0.526560
vt 0.833602 0.527330
vt 0.524512 0.565050
vt 0.524402 0.564810
vt 0.524472 0.564440
vt 0.524792 0.564770
vt 0.810232 0.554140
vt 0.795342 0.562740
vt 0.794832 0.561880
vt 0.570092 0.519880
vt 0.570722 0.519340
vt 0.581422 0.539320
vt 0.580792 0.539780
vt 0.569662 0.519160
vt 0.551522 0.479510
vt 0.552452 0.479040
vt 0.537882 0.443510
vt 0.538782 0.443180
vt 0.700272 0.145620
vt 0.700442 0.146570
vt 0.666082 0.156030
vt 0.665672 0.155060
vt 0.737352 0.134650
vt 0.737552 0.135630
vt 0.730132 0.532250
vt 0.728422 0.531900
vt 0.653002 0.520110
vt 0.651362 0.519940
vt 0.710232 0.974100
vt 0.709622 0.973880
vt 0.704032 0.752040
vt 0.704732 0.752160
vt 0.709872 0.974440
vt 0.723872 0.989770
vt 0.722162 0.990610
vt 0.709822 0.974460
vt 0.709562 0.973880
vt 0.700862 0.975160
vt 0.700312 0.975450
vt 0.672262 0.752820
vt 0.672942 0.752660
vt 0.700732 0.976020
vt 0.692582 0.993810
vt 0.690592 0.993590
vt 0.794642 0.562960
vt 0.794002 0.562160
vt 0.724702 0.990390
vt 0.749802 0.763650
vt 0.750552 0.763960
vt 0.723212 0.990860
vt 0.722032 0.990640
vt 0.582112 0.540140
vt 0.581572 0.540680
vt 0.689872 0.994340
vt 0.627342 0.767680
vt 0.628072 0.767280
vt 0.728632 0.534190
vt 0.727612 0.533960
vt 0.727282 0.534700
vt 0.726902 0.534630
vt 0.727162 0.533900
vt 0.728152 0.534910
vt 0.793332 0.563300
vt 0.793092 0.563700
vt 0.653072 0.522660
vt 0.652062 0.522670
vt 0.652262 0.523640
vt 0.583322 0.544110
vt 0.583082 0.543320
vt 0.581922 0.543680
vt 0.534872 0.573760
vt 0.534922 0.574120
vt 0.534632 0.574220
vt 0.534612 0.573920
vt 0.794012 0.563740
vt 0.658492 0.371040
vt 0.687112 0.367290
vt 0.508462 0.422750
vt 0.509422 0.422430
vt 0.522572 0.408280
vt 0.523612 0.408030
vt 0.610252 0.375410
vt 0.639512 0.368990
vt 0.461482 0.377180
vt 0.461282 0.377820
vt 0.474702 0.382410
vt 0.475462 0.381370
vt 0.475532 0.381390
vt 0.474772 0.382450
vt 0.693352 0.326750
vt 0.666512 0.310390
vt 0.658662 0.322710
vt 0.688472 0.332840
vt 0.688462 0.332870
vt 0.658632 0.322770
vt 0.663512 0.280820
vt 0.641102 0.259570
vt 0.597612 0.328570
vt 0.628552 0.335230
vt 0.628412 0.335480
vt 0.597462 0.329020
vt 0.640392 0.260400
vt 0.618252 0.248560
vt 0.618682 0.247360
vt 0.597032 0.330160
vt 0.574092 0.314860
vt 0.574992 0.314000
vt 0.635952 0.165980
vt 0.635812 0.165080
vt 0.635222 0.165390
vt 0.623142 0.175040
vt 0.622622 0.174180
vt 0.507682 0.368660
vt 0.507652 0.367800
vt 0.507972 0.367790
vt 0.508102 0.368620
vt 0.508852 0.367750
vt 0.504442 0.345650
vt 0.505212 0.345550
vt 0.616822 0.248440
vt 0.617562 0.246840
vt 0.572982 0.314160
vt 0.574172 0.312850
vt 0.498432 0.175560
vt 0.498802 0.174950
vt 0.614182 0.246690
vt 0.613822 0.247500
vt 0.335452 0.029400
vt 0.336292 0.029870
vt 0.336252 0.029900
vt 0.335452 0.029440
vt 0.343032 0.023500
vt 0.342502 0.023570
vt 0.337832 0.003750
vt 0.339482 0.002980
vt 0.477042 0.198030
vt 0.477622 0.197640
vt 0.571722 0.310490
vt 0.571072 0.311080
vt 0.335662 0.030080
vt 0.315832 0.026390
vt 0.316832 0.024770
vt 0.622602 0.175590
vt 0.622252 0.174660
vt 0.518222 0.133970
vt 0.518472 0.133190
vt 0.621372 0.174690
vt 0.621142 0.175530
vt 0.315762 0.025220
vt 0.316902 0.024680
vt 0.314802 0.026390
vt 0.504382 0.344560
vt 0.505322 0.344750
vt 0.434952 0.217310
vt 0.435752 0.217110
vt 0.503512 0.340120
vt 0.502562 0.340360
vt 0.614652 0.247720
vt 0.615062 0.246780
vt 0.571962 0.310220
vt 0.572632 0.310820
vt 0.572352 0.311150
vt 0.621522 0.175540
vt 0.571592 0.311860
vt 0.503802 0.340870
vt 0.502712 0.341170
vt 0.502382 0.341220
vt 0.502252 0.340420
vt 0.621492 0.174730
vt 0.443342 0.538980
vt 0.443362 0.538930
vt 0.446792 0.529820
vt 0.444422 0.499360
vt 0.352102 0.428840
vt 0.327992 0.420120
vt 0.716332 0.458760
vt 0.716412 0.458780
vt 0.733122 0.480430
vt 0.732892 0.480270
vt 0.662622 0.431900
vt 0.674962 0.418170
vt 0.703472 0.454680
vt 0.674532 0.465160
vt 0.761172 0.239880
vt 0.757822 0.257280
vt 0.734642 0.270910
vt 0.727652 0.256070
vt 0.696872 0.128820
vt 0.723182 0.120420
vt 0.728662 0.530850
vt 0.534122 0.572490
vt 0.533892 0.572730
vt 0.727792 0.531830
vt 0.534402 0.572930
vt 0.534642 0.572730
vt 0.602462 0.776910
vt 0.602602 0.776860
vt 0.679892 0.998020
vt 0.679842 0.998040
vt 0.703862 0.752040
vt 0.433802 0.573820
vt 0.510822 0.586790
vt 0.761842 0.454520
vt 0.760892 0.467750
vt 0.438992 0.484810
vt 0.665322 0.395130
vt 0.649372 0.401000
vt 0.416952 0.447740
vt 0.416912 0.447730
vt 0.433992 0.470390
vt 0.375672 0.435130
vt 0.658382 0.322680
vt 0.628612 0.335480
vt 0.628822 0.335310
vt 0.658422 0.322620
vt 0.639762 0.368910
vt 0.658262 0.371070
vt 0.694962 0.271770
vt 0.709622 0.284010
vt 0.671642 0.134420
vt 0.575202 0.313610
vt 0.504222 0.345560
vt 0.574512 0.312390
vt 0.504122 0.344460
vt 0.434842 0.217360
vt 0.477722 0.197540
vt 0.408402 0.445120
vt 0.443582 0.358770
vt 0.417272 0.350710
vt 0.666272 0.310260
vt 0.663662 0.280970
vt 0.653142 0.523610
vt 0.582442 0.544490
vt 0.793912 0.563950
vt 0.342782 0.024080
vt 0.339572 0.001950
vt 0.314762 0.026410
vt 0.658402 0.492190
vt 0.674882 0.465350
vt 0.675012 0.465120
vt 0.703582 0.454710
vt 0.703702 0.454490
vt 0.720732 0.429530
vt 0.534892 0.527770
vt 0.446762 0.529890
vt 0.536172 0.528150
vt 0.569162 0.519530
vt 0.569712 0.520220
vt 0.580582 0.540140
vt 0.581342 0.541060
vt 0.581512 0.543980
vt 0.581972 0.544710
vt 0.627142 0.767760
vt 0.689792 0.994370
vt 0.691922 0.994380
vt 0.692802 0.993800
vt 0.700792 0.976070
vt 0.700932 0.975150
vt 0.673202 0.752650
vt 0.653762 0.523640
vt 0.653772 0.522720
vt 0.653912 0.520260
vt 0.653472 0.518910
vt 0.640112 0.260670
vt 0.663412 0.281070
vt 0.663622 0.281230
vt 0.666232 0.310310
vt 0.666472 0.310440
vt 0.693332 0.326780
vt 0.408442 0.445130
vt 0.461342 0.377840
vt 0.461542 0.377210
vt 0.443792 0.358980
vt 0.443942 0.358470
vt 0.445802 0.346190
vt 0.446262 0.345570
vt 0.446102 0.344400
vt 0.446082 0.343980
vt 0.410652 0.227460
vt 0.305202 0.030920
vt 0.338412 0.002690
vt 0.337752 0.003810
vt 0.342472 0.023590
vt 0.342752 0.024110
vt 0.498352 0.175650
vt 0.613682 0.247760
vt 0.614462 0.248030
vt 0.616582 0.248890
vt 0.617982 0.248860
vt 0.443632 0.358420
vt 0.445542 0.346150
vt 0.446012 0.345550
vt 0.445862 0.344400
vt 0.445842 0.344050
vt 0.410552 0.227500
vt 0.305162 0.030940
vn -0.268970 -0.809257 -0.522263
vn -0.268970 -0.809257 -0.522263
vn -0.268970 -0.809257 -0.522263
vn -0.268970 -0.809257 -0.522263
vn -0.779916 -0.625884 0.000000
vn -0.779916 -0.625884 0.000000
vn -0.779916 -0.625884 0.000000
vn -0.779916 -0.625884 0.000000
vn -0.268559 -0.808831 0.523133
vn -0.268559 -0.808831 0.523133
vn -0.268559 -0.808831 0.523133
vn -0.268559 -0.808831 0.523133
vn -0.069258 -0.828113 0.556266
vn -0.069258 -0.828113 0.556266
vn -0.069258 -0.828113 0.556266
vn -0.069258 -0.828113 0.556266
vn 0.085035 -0.828031 -0.554197
vn 0.085035 -0.828031 -0.554197
vn 0.085035 -0.828031 -0.554197
vn 0.085035 -0.828031 -0.554197
vn -0.085035 -0.828027 -0.554202
vn -0.085035 -0.828027 -0.554202
vn -0.085035 -0.828027 -0.554202
vn -0.085035 -0.828027 -0.554202
vn -0.457620 0.025146 -0.888792
vn -0.457620 0.025146 -0.888792
vn -0.457620 0.025146 -0.888792
vn -0.457620 0.025146 -0.888792
vn -0.999897 0.014344 0.000000
vn -0.999897 0.014344 0.000000
vn -0.999897 0.014344 0.000000
vn -0.999897 0.014344 0.000000
vn -0.456454 0.025191 0.889391
vn -0.456454 0.025191 0.889391
vn -0.456454 0.025191 0.889391
vn -0.456454 0.025191 0.889391
vn -0.130485 0.027187 0.991077
vn -0.130485 0.027187 0.991077
vn -0.130485 0.027187 0.991078
vn -0.130485 0.027187 0.991077
vn 0.158147 0.027072 -0.987044
vn 0.158147 0.027072 -0.987044
vn 0.158147 0.027072 -0.987044
vn 0.158147 0.027072 -0.987044
vn -0.158147 0.027072 -0.987044
vn -0.158147 0.027072 -0.987044
vn -0.158147 0.027072 -0.987044
vn -0.158147 0.027072 -0.987044
vn 0.135946 0.025374 0.990391
vn 0.135946 0.025374 0.990391
vn 0.135946 0.025374 0.990391
vn 0.135946 0.025374 0.990391
vn 0.537663 0.649109 0.538124
vn 0.537663 0.649109 0.538124
vn 0.537663 0.649109 0.538124
vn 0.537663 0.649109 0.538124
vn 0.999723 0.023533 -0.000146
vn 0.999723 0.023533 -0.000146
vn 0.999723 0.023533 -0.000146
vn 0.999723 0.023533 -0.000146
vn 0.535963 0.645668 -0.543927
vn 0.535963 0.645668 -0.543927
vn 0.535963 0.645668 -0.543927
vn 0.535963 0.645668 -0.543927
vn 0.140119 0.025567 -0.989805
vn 0.140119 0.025567 -0.989805
vn 0.140119 0.025567 -0.989805
vn 0.140119 0.025567 -0.989805
vn 0.136133 0.027146 -0.990319
vn 0.136133 0.027146 -0.990319
vn 0.136133 0.027146 -0.990319
vn 0.136133 0.027146 -0.990319
vn -0.140199 0.027165 0.989751
vn -0.140199 0.027165 0.989751
vn -0.140199 0.027165 0.989751
vn -0.140199 0.027165 0.989751
vn 0.140199 0.027165 0.989751
vn 0.140199 0.027165 0.989751
vn 0.140199 0.027165 0.989751
vn 0.140199 0.027165 0.989751
vn 0.080125 -0.807465 0.584448
vn 0.080125 -0.807465 0.584448
vn 0.080125 -0.807465 0.584448
vn 0.080125 -0.807465 0.584448
vn 0.137462 -0.990507 0.000000
vn 0.137462 -0.990507 0.000000
vn 0.137462 -0.990507 0.000000
vn 0.137462 -0.990507 0.000000
vn 0.308618 -0.764086 0.566504
vn 0.308618 -0.764086 0.566504
vn 0.308618 -0.764086 0.566504
vn 0.308618 -0.764086 0.566504
vn 0.449065 -0.754239 -0.479024
vn 0.449065 -0.754239 -0.479024
vn 0.449065 -0.754239 -0.479024
vn 0.449065 -0.754239 -0.479024
vn 0.082372 -0.808172 -0.583158
vn 0.082372 -0.808172 -0.583158
vn 0.082372 -0.808172 -0.583158
vn 0.082372 -0.808172 -0.583158
vn 0.073517 -0.828161 -0.555648
vn 0.073517 -0.828161 -0.555647
vn 0.073517 -0.828161 -0.555648
vn 0.073517 -0.828161 -0.555647
vn -0.076525 -0.827413 0.556355
vn -0.076525 -0.827413 0.556355
vn -0.076525 -0.827413 0.556355
vn -0.076525 -0.827413 0.556355
vn 0.076525 -0.827416 0.556352
vn 0.076525 -0.827416 0.556352
vn 0.076525 -0.827416 0.556352
vn 0.076525 -0.827416 0.556352
vn 0.702209 0.582251 0.409740
vn 0.702209 0.582251 0.409740
vn 0.702209 0.582251 0.409740
vn 0.702209 0.582251 0.409740
vn 0.709952 0.550020 -0.439826
vn 0.709952 0.550020 -0.439826
vn 0.709952 0.550020 -0.439826
vn 0.709952 0.550020 -0.439826
vn 0.016939 0.665342 0.746346
vn 0.016939 0.665342 0.746346
vn 0.016939 0.665342 0.746346
vn 0.016939 0.665342 0.746346
vn 0.602179 0.503733 0.619381
vn 0.602179 0.503733 0.619381
vn 0.602179 0.503733 0.619381
vn 0.602179 0.503733 0.619381
vn 0.468077 0.883610 0.011699
vn 0.468077 0.883610 0.011699
vn 0.468077 0.883610 0.011699
vn 0.468077 0.883610 0.011699
vn 0.016746 0.676864 -0.735918
vn 0.016746 0.676864 -0.735918
vn 0.016746 0.676864 -0.735918
vn 0.016746 0.676864 -0.735918
vn 0.598703 0.523333 -0.606364
vn 0.598703 0.523332 -0.606364
vn 0.598703 0.523333 -0.606364
vn 0.598703 0.523332 -0.606364
vn 0.711141 -0.580097 0.397197
vn 0.711141 -0.580097 0.397197
vn 0.711141 -0.580097 0.397197
vn 0.711141 -0.580097 0.397197
vn 0.142339 -0.770598 0.621223
vn 0.142339 -0.770598 0.621223
vn 0.142339 -0.770598 0.621223
vn 0.142339 -0.770598 0.621223
vn 0.945670 -0.324990 -0.009465
vn 0.945670 -0.324990 -0.009465
vn 0.945670 -0.324990 -0.009465
vn 0.945670 -0.324990 -0.009465
vn 0.673993 -0.634551 -0.378257
vn 0.673993 -0.634551 -0.378257
vn 0.673993 -0.634551 -0.378257
vn 0.673993 -0.634551 -0.378256
vn 0.129461 -0.759140 -0.637923
vn 0.129461 -0.759140 -0.637923
vn 0.129461 -0.759140 -0.637923
vn 0.129461 -0.759140 -0.637923
vn 0.048122 0.826234 0.561268
vn 0.048122 0.826234 0.561268
vn 0.048122 0.826234 0.561268
vn 0.048122 0.826234 0.561268
vn 0.063100 0.998007 0.000011
vn 0.063100 0.998007 0.000011
vn 0.063100 0.998007 0.000011
vn 0.063100 0.998007 0.000011
vn 0.079683 -0.014719 0.996712
vn 0.079683 -0.014719 0.996712
vn 0.079683 -0.014719 0.996712
vn 0.079683 -0.014719 0.996712
vn 0.064394 0.814301 -0.576860
vn 0.064394 0.814301 -0.576860
vn 0.064394 0.814301 -0.576860
vn 0.064394 0.814301 -0.576860
vn 0.331943 -0.135044 -0.933583
vn 0.331943 -0.135044 -0.933583
vn 0.331943 -0.135044 -0.933583
vn 0.331943 -0.135044 -0.933583
vn 0.785661 -0.538641 -0.304306
vn 0.785661 -0.538641 -0.304306
vn 0.785662 -0.538641 -0.304306
vn 0.785662 -0.538641 -0.304306
vn 0.043503 -0.998881 -0.018581
vn 0.043503 -0.998881 -0.018581
vn 0.043503 -0.998881 -0.018581
vn 0.043503 -0.998881 -0.018581
vn 0.048074 -0.838737 0.542411
vn 0.048074 -0.838737 0.542411
vn 0.048074 -0.838737 0.542411
vn 0.048074 -0.838737 0.542411
vn 0.130485 0.027187 0.991077
vn 0.130485 0.027187 0.991078
vn 0.130485 0.027187 0.991077
vn 0.130485 0.027187 0.991077
vn 0.069258 -0.828110 0.556271
vn 0.069258 -0.828110 0.556271
vn 0.069258 -0.828110 0.556271
vn 0.069258 -0.828110 0.556271
vn -0.073517 -0.828161 -0.555647
vn -0.073517 -0.828161 -0.555647
vn -0.073517 -0.828161 -0.555647
vn -0.073517 -0.828161 -0.555647
vn -0.136133 0.027146 -0.990319
vn -0.136133 0.027146 -0.990319
vn -0.136133 0.027146 -0.990319
vn -0.136133 0.027146 -0.990319
vn 0.268965 -0.809268 -0.522248
vn 0.268965 -0.809268 -0.522248
vn 0.268965 -0.809268 -0.522248
vn 0.268965 -0.809268 -0.522248
vn 0.779832 -0.625989 0.000000
vn 0.779832 -0.625989 0.000000
vn 0.779832 -0.625989 0.000000
vn 0.779832 -0.625989 0.000000
vn 0.268566 -0.808824 0.523142
vn 0.268566 -0.808823 0.523142
vn 0.268566 -0.808823 0.523142
vn 0.268566 -0.808823 0.523142
vn 0.457621 0.025146 -0.888792
vn 0.457621 0.025146 -0.888792
vn 0.457621 0.025146 -0.888792
vn 0.457620 0.025146 -0.888792
vn 0.999897 0.014336 0.000013
vn 0.999897 0.014335 0.000013
vn 0.999897 0.014336 0.000013
vn 0.999897 0.014336 0.000013
vn 0.456454 0.025191 0.889391
vn 0.456454 0.025191 0.889391
vn 0.456454 0.025191 0.889391
vn 0.456454 0.025191 0.889391
vn -0.135946 0.025374 0.990391
vn -0.135946 0.025374 0.990391
vn -0.135946 0.025374 0.990391
vn -0.135946 0.025374 0.990391
vn -0.999717 0.023779 -0.000158
vn -0.999717 0.023779 -0.000158
vn -0.999717 0.023779 -0.000158
vn -0.999717 0.023779 -0.000158
vn -0.537653 0.649095 0.538150
vn -0.537653 0.649095 0.538150
vn -0.537653 0.649095 0.538150
vn -0.537653 0.649095 0.538150
vn -0.535973 0.645684 -0.543898
vn -0.535973 0.645684 -0.543898
vn -0.535972 0.645684 -0.543898
vn -0.535972 0.645684 -0.543898
vn -0.140118 0.025567 -0.989805
vn -0.140118 0.025567 -0.989805
vn -0.140118 0.025567 -0.989805
vn -0.140118 0.025567 -0.989805
vn -0.080125 -0.807466 0.584447
vn -0.080125 -0.807466 0.584447
vn -0.080125 -0.807466 0.584447
vn -0.080125 -0.807466 0.584447
vn -0.308617 -0.764085 0.566507
vn -0.308617 -0.764085 0.566507
vn -0.308617 -0.764085 0.566507
vn -0.308617 -0.764085 0.566507
vn -0.137301 -0.990529 0.000000
vn -0.137301 -0.990529 0.000000
vn -0.137301 -0.990529 0.000000
vn -0.137301 -0.990529 0.000000
vn -0.449057 -0.754257 -0.479003
vn -0.449057 -0.754257 -0.479003
vn -0.449057 -0.754257 -0.479003
vn -0.449057 -0.754257 -0.479003
vn -0.082371 -0.808175 -0.583153
vn -0.082371 -0.808175 -0.583153
vn -0.082371 -0.808175 -0.583153
vn -0.082371 -0.808175 -0.583153
vn -0.702238 0.582208 0.409752
vn -0.702238 0.582208 0.409752
vn -0.702238 0.582208 0.409752
vn -0.702238 0.582208 0.409752
vn -0.710876 0.544552 -0.445105
vn -0.710876 0.544552 -0.445105
vn -0.710876 0.544552 -0.445105
vn -0.710876 0.544552 -0.445105
vn -0.143397 0.761770 0.631778
vn -0.143397 0.761770 0.631778
vn -0.143397 0.761770 0.631778
vn -0.143397 0.761770 0.631778
vn -0.467066 0.884151 0.011261
vn -0.467066 0.884151 0.011261
vn -0.467066 0.884151 0.011261
vn -0.467066 0.884151 0.011261
vn -0.602229 0.503782 0.619294
vn -0.602229 0.503782 0.619294
vn -0.602229 0.503782 0.619294
vn -0.602229 0.503782 0.619294
vn -0.182335 0.741346 -0.645880
vn -0.182335 0.741346 -0.645880
vn -0.182335 0.741346 -0.645880
vn -0.182335 0.741346 -0.645880
vn -0.598684 0.523320 -0.606395
vn -0.598684 0.523320 -0.606395
vn -0.598684 0.523319 -0.606395
vn -0.598684 0.523319 -0.606395
vn -0.710905 -0.580692 0.396750
vn -0.710905 -0.580692 0.396750
vn -0.710905 -0.580692 0.396750
vn -0.710905 -0.580692 0.396750
vn -0.118509 -0.799124 0.589370
vn -0.118509 -0.799123 0.589370
vn -0.118509 -0.799123 0.589370
vn -0.118509 -0.799124 0.589370
vn -0.946390 -0.322971 -0.005897
vn -0.946390 -0.322971 -0.005897
vn -0.946390 -0.322971 -0.005897
vn -0.946390 -0.322971 -0.005897
vn -0.691448 -0.609883 -0.387223
vn -0.691448 -0.609883 -0.387223
vn -0.691448 -0.609883 -0.387223
vn -0.691448 -0.609883 -0.387223
vn -0.125783 -0.798366 -0.588890
vn -0.125783 -0.798366 -0.588890
vn -0.125783 -0.798366 -0.588890
vn -0.125783 -0.798366 -0.588890
vn -0.048120 0.826233 0.561269
vn -0.048120 0.826233 0.561269
vn -0.048120 0.826233 0.561269
vn -0.048120 0.826233 0.561269
vn -0.062846 0.998023 0.000002
vn -0.062846 0.998023 0.000002
vn -0.062846 0.998023 0.000002
vn -0.062846 0.998023 0.000002
vn -0.079693 -0.014718 0.996711
vn -0.079693 -0.014718 0.996711
vn -0.079693 -0.014718 0.996711
vn -0.079693 -0.014718 0.996711
vn -0.070426 0.817633 -0.571416
vn -0.070426 0.817633 -0.571416
vn -0.070426 0.817633 -0.571416
vn -0.070426 0.817633 -0.571416
vn -0.272019 -0.135544 -0.952698
vn -0.272019 -0.135544 -0.952698
vn -0.272019 -0.135544 -0.952698
vn -0.272019 -0.135544 -0.952698
vn -0.669275 -0.625565 -0.400924
vn -0.669275 -0.625565 -0.400924
vn -0.669275 -0.625565 -0.400924
vn -0.669274 -0.625565 -0.400924
vn -0.233118 -0.972311 -0.016330
vn -0.233118 -0.972311 -0.016330
vn -0.233118 -0.972311 -0.016330
vn -0.233118 -0.972311 -0.016330
vn -0.049617 -0.837663 0.543929
vn -0.049617 -0.837663 0.543929
vn -0.049617 -0.837663 0.543929
vn -0.049617 -0.837663 0.543929
vn -0.999908 -0.013581 0.000000
vn -0.999908 -0.013581 0.000000
vn -0.999908 -0.013581 0.000000
vn -0.999908 -0.013581 0.000000
vn -0.456629 -0.004779 0.889645
vn -0.456629 -0.004779 0.889645
vn -0.456629 -0.004779 0.889645
vn -0.456629 -0.004779 0.889645
vn -0.154854 -0.002716 -0.987934
vn -0.154854 -0.002716 -0.987934
vn -0.154854 -0.002716 -0.987934
vn -0.154854 -0.002716 -0.987934
vn 0.000000 1.000000 0.000000
vn 0.000000 1.000000 0.000000
vn 0.000000 1.000000 0.000000
vn 0.000000 1.000000 0.000000
vn 0.000000 1.000000 0.000000
vn 0.000000 1.000000 0.000000
vn 0.000000 1.000000 0.000000
vn 0.000000 1.000000 0.000000
vn 0.000000 1.000000 0.000000
vn 0.000000 1.000000 0.000000
vn 0.000000 1.000000 0.000000
vn 0.000000 1.000000 0.000000
vn 0.756315 0.654178 0.006295
vn 0.756315 0.654178 0.006295
vn 0.756315 0.654178 0.006295
vn 0.756315 0.654178 0.006295
vn 0.141305 0.000337 -0.989966
vn 0.141305 0.000337 -0.989966
vn 0.141305 0.000337 -0.989966
vn 0.141305 0.000337 -0.989966
vn 0.138223 0.002603 0.990398
vn 0.138223 0.002603 0.990398
vn 0.138223 0.002603 0.990398
vn 0.138223 0.002603 0.990398
vn 0.000000 -1.000000 0.000000
vn 0.000000 -1.000000 0.000000
vn 0.000000 -1.000000 0.000000
vn 0.000000 -1.000000 0.000000
vn 0.000000 -1.000000 0.000000
vn 0.000000 -1.000000 0.000000
vn 0.000000 -1.000000 0.000000
vn 0.000000 -1.000000 0.000000
vn 0.000000 -1.000000 0.000000
vn 0.000000 -1.000000 0.000000
vn 0.000000 -1.000000 0.000000
vn 0.000000 -1.000000 0.000000
vn 0.599136 0.800647 0.000000
vn 0.599136 0.800647 0.000000
vn 0.599136 0.800647 0.000000
vn 0.599136 0.800647 0.000000
vn 0.126298 -0.004227 0.991983
vn 0.126298 -0.004227 0.991983
vn 0.126299 -0.004227 0.991983
vn 0.126299 -0.004227 0.991983
vn 0.271150 -0.962537 0.000000
vn 0.271150 -0.962537 0.000000
vn 0.271150 -0.962537 0.000000
vn 0.271150 -0.962537 0.000000
vn 0.269503 -0.042469 -0.962063
vn 0.269503 -0.042469 -0.962063
vn 0.269503 -0.042469 -0.962063
vn 0.269503 -0.042469 -0.962063
vn 0.036976 0.999316 0.000000
vn 0.036976 0.999316 0.000000
vn 0.036976 0.999316 0.000000
vn 0.036976 0.999316 0.000000
vn 0.608014 -0.091932 -0.788586
vn 0.608014 -0.091932 -0.788586
vn 0.608014 -0.091932 -0.788586
vn 0.608014 -0.091932 -0.788586
vn 0.037884 -0.999250 -0.008079
vn 0.037884 -0.999250 -0.008079
vn 0.037884 -0.999250 -0.008079
vn 0.037884 -0.999250 -0.008079
vn 0.091263 -0.014526 0.995721
vn 0.091263 -0.014526 0.995721
vn 0.091263 -0.014526 0.995721
vn 0.091263 -0.014526 0.995721
vn 0.038960 -0.043339 -0.998300
vn 0.038960 -0.043339 -0.998301
vn 0.038960 -0.043339 -0.998301
vn 0.038960 -0.043339 -0.998300
vn 0.148161 -0.988641 -0.025265
vn 0.148161 -0.988641 -0.025265
vn 0.148161 -0.988641 -0.025265
vn 0.148161 -0.988640 -0.025265
vn 0.042487 0.000353 0.999097
vn 0.042487 0.000353 0.999097
vn 0.042487 0.000353 0.999097
vn 0.042487 0.000353 0.999097
vn -0.023583 0.999707 0.005537
vn -0.023583 0.999707 0.005537
vn -0.023583 0.999707 0.005537
vn -0.023583 0.999707 0.005537
vn 0.521367 -0.083822 -0.849206
vn 0.521367 -0.083822 -0.849205
vn 0.521367 -0.083822 -0.849205
vn 0.521367 -0.083822 -0.849206
vn 0.599096 -0.800677 -0.000100
vn 0.599096 -0.800677 -0.000100
vn 0.599096 -0.800677 -0.000100
vn 0.599096 -0.800677 -0.000100
vn 0.571121 -0.004941 0.820851
vn 0.571121 -0.004941 0.820851
vn 0.571120 -0.004941 0.820851
vn 0.571121 -0.004941 0.820851
vn 0.599133 0.800650 0.000000
vn 0.599133 0.800650 0.000000
vn 0.599133 0.800650 0.000000
vn 0.599133 0.800650 0.000000
vn -0.457783 -0.007639 -0.889031
vn -0.457783 -0.007639 -0.889031
vn -0.457783 -0.007639 -0.889031
vn -0.457783 -0.007639 -0.889031
vn 0.000000 -1.000000 0.000000
vn 0.000000 -1.000000 0.000000
vn 0.000000 -1.000000 0.000000
vn 0.000000 -1.000000 0.000000
vn 0.137372 0.003450 0.990514
vn 0.137372 0.003450 0.990514
vn 0.137372 0.003450 0.990514
vn 0.137372 0.003450 0.990514
vn 0.000000 1.000000 0.000000
vn 0.000000 1.000000 0.000000
vn 0.000000 1.000000 0.000000
vn 0.000000 1.000000 0.000000
vn -0.126948 0.000809 0.991909
vn -0.126948 0.000809 0.991909
vn -0.126948 0.000809 0.991909
vn -0.126948 0.000809 0.991909
vn 0.000000 -1.000000 -0.000000
vn 0.000000 -1.000000 -0.000000
vn 0.000000 -1.000000 -0.000000
vn 0.000000 -1.000000 -0.000000
vn 0.133630 -0.000769 -0.991031
vn 0.133630 -0.000769 -0.991031
vn 0.133630 -0.000769 -0.991031
vn 0.133630 -0.000769 -0.991031
vn 0.000000 1.000000 -0.000000
vn 0.000000 1.000000 -0.000000
vn 0.000000 1.000000 -0.000000
vn 0.000000 1.000000 -0.000000
vn 0.999908 -0.013581 -0.000013
vn 0.999908 -0.013581 -0.000013
vn 0.999908 -0.013581 -0.000013
vn 0.999908 -0.013581 -0.000013
vn 0.456629 -0.004779 0.889644
vn 0.456629 -0.004779 0.889644
vn 0.456629 -0.004779 0.889644
vn 0.456629 -0.004779 0.889644
vn 0.154854 -0.002716 -0.987934
vn 0.154854 -0.002716 -0.987934
vn 0.154854 -0.002716 -0.987934
vn 0.154854 -0.002716 -0.987934
vn 0.000000 1.000000 0.000017
vn 0.000000 1.000000 0.000017
vn 0.000000 1.000000 0.000017
vn 0.000000 1.000000 0.000017
vn 0.000000 1.000000 0.000000
vn 0.000000 1.000000 0.000000
vn 0.000000 1.000000 0.000000
vn 0.000000 1.000000 0.000000
vn 0.000000 1.000000 -0.000000
vn 0.000000 1.000000 -0.000000
vn 0.000000 1.000000 -0.000000
vn 0.000000 1.000000 -0.000000
vn -0.756305 0.654155 0.009122
vn -0.756305 0.654155 0.009122
vn -0.756305 0.654155 0.009122
vn -0.756305 0.654155 0.009122
vn -0.141305 0.000337 -0.989966
vn -0.141305 0.000337 -0.989966
vn -0.141305 0.000337 -0.989966
vn -0.141305 0.000337 -0.989966
vn -0.138223 0.002603 0.990398
vn -0.138223 0.002603 0.990398
vn -0.138223 0.002603 0.990398
vn -0.138223 0.002603 0.990398
vn 0.000000 -1.000000 0.000000
vn 0.000000 -1.000000 0.000000
vn 0.000000 -1.000000 0.000000
vn 0.000000 -1.000000 0.000000
vn 0.000000 -1.000000 0.000000
vn 0.000000 -1.000000 0.000000
vn 0.000000 -1.000000 0.000000
vn 0.000000 -1.000000 0.000000
vn 0.000000 -1.000000 -0.000000
vn 0.000000 -1.000000 -0.000000
vn 0.000000 -1.000000 -0.000000
vn 0.000000 -1.000000 -0.000000
vn -0.599127 0.800654 0.000000
vn -0.599127 0.800654 0.000000
vn -0.599127 0.800654 0.000000
vn -0.599127 0.800654 0.000000
vn -0.126298 -0.004227 0.991983
vn -0.126298 -0.004227 0.991983
vn -0.126298 -0.004227 0.991983
vn -0.126298 -0.004227 0.991983
vn -0.271151 -0.962537 0.000000
vn -0.271151 -0.962537 0.000000
vn -0.271151 -0.962537 0.000000
vn -0.271151 -0.962537 0.000000
vn -0.269505 -0.042469 -0.962062
vn -0.269505 -0.042469 -0.962062
vn -0.269505 -0.042469 -0.962062
vn -0.269505 -0.042469 -0.962062
vn -0.036940 0.999317 -0.000008
vn -0.036940 0.999318 -0.000008
vn -0.036940 0.999317 -0.000008
vn -0.036940 0.999317 -0.000008
vn -0.540831 -0.096015 -0.835633
vn -0.540831 -0.096015 -0.835633
vn -0.540831 -0.096015 -0.835633
vn -0.540831 -0.096015 -0.835633
vn -0.399093 -0.916889 -0.006219
vn -0.399093 -0.916889 -0.006219
vn -0.399093 -0.916889 -0.006219
vn -0.399093 -0.916889 -0.006219
vn -0.091268 -0.014526 0.995720
vn -0.091268 -0.014526 0.995720
vn -0.091268 -0.014526 0.995720
vn -0.091268 -0.014526 0.995721
vn -0.142438 -0.110431 -0.983624
vn -0.142438 -0.110431 -0.983624
vn -0.142438 -0.110431 -0.983624
vn -0.142438 -0.110431 -0.983624
vn -0.071601 -0.997209 -0.021133
vn -0.071601 -0.997209 -0.021133
vn -0.071601 -0.997209 -0.021133
vn -0.071601 -0.997209 -0.021133
vn -0.106798 -0.006945 0.994257
vn -0.106798 -0.006945 0.994257
vn -0.106798 -0.006945 0.994257
vn -0.106798 -0.006945 0.994257
vn -0.094930 0.995484 0.000717
vn -0.094930 0.995484 0.000717
vn -0.094930 0.995484 0.000717
vn -0.094930 0.995484 0.000717
vn -0.521373 -0.083835 -0.849201
vn -0.521373 -0.083835 -0.849201
vn -0.521373 -0.083835 -0.849201
vn -0.521373 -0.083835 -0.849201
vn -0.599161 -0.800628 -0.000062
vn -0.599161 -0.800628 -0.000062
vn -0.599161 -0.800628 -0.000062
vn -0.599161 -0.800628 -0.000062
vn -0.571115 -0.004941 0.820855
vn -0.571115 -0.004941 0.820855
vn -0.571115 -0.004941 0.820855
vn -0.571115 -0.004941 0.820855
vn -0.599131 0.800651 0.000000
vn -0.599131 0.800651 0.000000
vn -0.599131 0.800651 0.000000
vn -0.599131 0.800651 0.000000
vn 0.457783 -0.007639 -0.889031
vn 0.457783 -0.007639 -0.889031
vn 0.457783 -0.007639 -0.889031
vn 0.457783 -0.007639 -0.889031
vn 0.000000 -1.000000 0.000000
vn 0.000000 -1.000000 0.000000
vn 0.000000 -1.000000 0.000000
vn 0.000000 -1.000000 0.000000
vn -0.137372 0.003450 0.990514
vn -0.137372 0.003450 0.990514
vn -0.137372 0.003450 0.990514
vn -0.137372 0.003450 0.990514
vn 0.000000 1.000000 -0.000000
vn 0.000000 1.000000 -0.000000
vn 0.000000 1.000000 -0.000000
vn 0.000000 1.000000 -0.000000
vn 0.126947 0.000809 0.991909
vn 0.126947 0.000809 0.991909
vn 0.126947 0.000809 0.991909
vn 0.126947 0.000809 0.991909
vn 0.000000 -1.000000 0.000000
vn 0.000000 -1.000000 0.000000
vn 0.000000 -1.000000 0.000000
vn 0.000000 -1.000000 0.000000
vn -0.133630 -0.000769 -0.991031
vn -0.133630 -0.000769 -0.991031
vn -0.133630 -0.000769 -0.991031
vn -0.133630 -0.000769 -0.991031
vn 0.000000 1.000000 0.000000
vn 0.000000 1.000000 0.000000
vn 0.000000 1.000000 0.000000
vn 0.000000 1.000000 0.000000
vn 0.860420 0.018961 0.509233
vn 0.860420 0.018961 0.509233
vn 0.860420 0.018961 0.509233
vn 0.836869 0.018741 -0.547082
vn 0.836869 0.018741 -0.547082
vn 0.836869 0.018741 -0.547082
vn 0.194164 -0.797462 0.571275
vn 0.194164 -0.797462 0.571275
vn 0.194164 -0.797462 0.571274
vn 0.276946 -0.829725 -0.484620
vn 0.276946 -0.829725 -0.484620
vn 0.276946 -0.829725 -0.484620
vn 0.378172 0.676448 0.631984
vn 0.378172 0.676448 0.631984
vn 0.378172 0.676448 0.631984
vn 0.377755 0.698886 -0.607338
vn 0.377755 0.698886 -0.607338
vn 0.377755 0.698886 -0.607338
vn 0.760390 -0.254097 0.597697
vn 0.760390 -0.254097 0.597697
vn 0.760390 -0.254097 0.597697
vn 0.753977 -0.237353 -0.612522
vn 0.753977 -0.237353 -0.612522
vn 0.753977 -0.237353 -0.612522
vn 0.097867 0.823025 0.559511
vn 0.097867 0.823025 0.559511
vn 0.097867 0.823025 0.559511
vn 0.097867 0.823025 0.559511
vn 0.099442 0.798048 -0.594332
vn 0.099442 0.798048 -0.594332
vn 0.099442 0.798048 -0.594332
vn 0.099442 0.798048 -0.594332
vn 0.499715 -0.736897 -0.455266
vn 0.499715 -0.736897 -0.455266
vn 0.499715 -0.736897 -0.455266
vn 0.499715 -0.736897 -0.455266
vn 0.079785 -0.837210 0.541030
vn 0.079785 -0.837210 0.541030
vn 0.079785 -0.837210 0.541030
vn 0.079785 -0.837210 0.541030
vn -0.860420 0.018961 0.509233
vn -0.860420 0.018961 0.509233
vn -0.860420 0.018961 0.509233
vn -0.836923 0.018743 -0.546999
vn -0.836923 0.018743 -0.546999
vn -0.836923 0.018743 -0.546999
vn -0.194168 -0.797458 0.571280
vn -0.194168 -0.797458 0.571280
vn -0.194168 -0.797457 0.571280
vn -0.276945 -0.829738 -0.484599
vn -0.276945 -0.829738 -0.484599
vn -0.276945 -0.829738 -0.484599
vn -0.378335 0.676345 0.631997
vn -0.378335 0.676346 0.631997
vn -0.378335 0.676346 0.631997
vn -0.377711 0.698902 -0.607348
vn -0.377711 0.698902 -0.607347
vn -0.377711 0.698902 -0.607347
vn -0.760393 -0.254223 0.597639
vn -0.760393 -0.254223 0.597639
vn -0.760393 -0.254223 0.597639
vn -0.754046 -0.237214 -0.612490
vn -0.754046 -0.237214 -0.612490
vn -0.754046 -0.237214 -0.612490
vn -0.097868 0.823014 0.559526
vn -0.097868 0.823014 0.559526
vn -0.097868 0.823014 0.559526
vn -0.097868 0.823014 0.559526
vn -0.099605 0.798214 -0.594081
vn -0.099605 0.798214 -0.594081
vn -0.099605 0.798214 -0.594081
vn -0.099605 0.798214 -0.594081
vn -0.403806 -0.778258 -0.480890
vn -0.403806 -0.778258 -0.480890
vn -0.403806 -0.778258 -0.480890
vn -0.403806 -0.778258 -0.480890
vn -0.079663 -0.837036 0.541317
vn -0.079663 -0.837036 0.541317
vn -0.079663 -0.837036 0.541317
vn -0.079663 -0.837036 0.541317
vn 0.067497 -0.806600 0.587232
vn 0.067497 -0.806600 0.587232
vn 0.067497 -0.806600 0.587232
vn 0.067497 -0.806600 0.587232
vn 0.035505 -0.999112 -0.022684
vn 0.035505 -0.999112 -0.022684
vn 0.035505 -0.999112 -0.022684
vn 0.035505 -0.999112 -0.022684
vn 0.070991 -0.805127 -0.588839
vn 0.070991 -0.805127 -0.588839
vn 0.070991 -0.805127 -0.588839
vn 0.070991 -0.805127 -0.588839
vn 0.085583 -0.116805 -0.989460
vn 0.085583 -0.116805 -0.989460
vn 0.085583 -0.116805 -0.989461
vn 0.085583 -0.116805 -0.989461
vn 0.115062 0.745333 -0.656689
vn 0.115062 0.745333 -0.656689
vn 0.115062 0.745333 -0.656689
vn 0.115062 0.745333 -0.656689
vn 0.063497 0.997982 0.000645
vn 0.063497 0.997982 0.000645
vn 0.063497 0.997982 0.000645
vn 0.063497 0.997982 0.000645
vn 0.092006 0.764449 0.638086
vn 0.092006 0.764449 0.638086
vn 0.092006 0.764449 0.638085
vn 0.092006 0.764449 0.638086
vn 0.066061 -0.009885 0.997767
vn 0.066061 -0.009885 0.997767
vn 0.066061 -0.009885 0.997767
vn 0.066061 -0.009885 0.997767
vn -0.144318 -0.770058 0.621436
vn -0.144318 -0.770058 0.621436
vn -0.144318 -0.770058 0.621436
vn -0.144318 -0.770059 0.621436
vn -0.150205 -0.988412 -0.021894
vn -0.150205 -0.988412 -0.021894
vn -0.150205 -0.988412 -0.021894
vn -0.150205 -0.988412 -0.021894
vn -0.131788 -0.759191 -0.637387
vn -0.131788 -0.759190 -0.637387
vn -0.131788 -0.759190 -0.637387
vn -0.131788 -0.759191 -0.637387
vn -0.038981 -0.041724 -0.998368
vn -0.038981 -0.041724 -0.998368
vn -0.038981 -0.041724 -0.998368
vn -0.038981 -0.041724 -0.998368
vn -0.014901 0.676612 -0.736189
vn -0.014901 0.676612 -0.736189
vn -0.014901 0.676612 -0.736189
vn -0.014901 0.676612 -0.736189
vn 0.027236 0.999614 0.005450
vn 0.027236 0.999614 0.005450
vn 0.027236 0.999614 0.005450
vn 0.027236 0.999614 0.005450
vn -0.015152 0.664641 0.747010
vn -0.015152 0.664641 0.747010
vn -0.015152 0.664641 0.747010
vn -0.015152 0.664641 0.747010
vn -0.042464 0.000580 0.999098
vn -0.042464 0.000580 0.999098
vn -0.042464 0.000580 0.999098
vn -0.042464 0.000580 0.999098
vn -1.000000 0.000000 0.000000
vn -1.000000 0.000000 0.000000
vn -1.000000 0.000000 0.000000
vn -1.000000 0.000000 0.000000
vn 1.000000 0.000000 -0.000292
vn 1.000000 0.000000 -0.000292
vn 1.000000 0.000000 -0.000292
vn 1.000000 0.000000 -0.000292
vn -0.456568 0.000000 0.889689
vn -0.456568 0.000000 0.889689
vn -0.456568 0.000000 0.889689
vn -0.456568 0.000000 0.889689
vn 0.139038 0.000000 -0.990287
vn 0.139038 0.000000 -0.990287
vn 0.139038 0.000000 -0.990287
vn 0.139038 0.000000 -0.990287
vn -0.158192 0.000000 -0.987408
vn -0.158192 0.000000 -0.987408
vn -0.158192 0.000000 -0.987408
vn -0.158192 0.000000 -0.987408
vn 0.140252 0.000000 0.990116
vn 0.140252 0.000000 0.990116
vn 0.140252 0.000000 0.990116
vn 0.140252 0.000000 0.990116
vn -0.457734 0.000000 -0.889089
vn -0.457734 0.000000 -0.889089
vn -0.457734 0.000000 -0.889089
vn -0.457734 0.000000 -0.889089
vn 0.134599 0.000000 0.990900
vn 0.134599 0.000000 0.990900
vn 0.134599 0.000000 0.990900
vn 0.134599 0.000000 0.990900
vn -0.130517 0.000000 0.991446
vn -0.130517 0.000000 0.991446
vn -0.130517 0.000000 0.991446
vn -0.130517 0.000000 0.991446
vn 0.136187 0.000000 -0.990683
vn 0.136187 0.000000 -0.990683
vn 0.136187 0.000000 -0.990683
vn 0.136187 0.000000 -0.990683
vn -1.000000 0.000000 -0.000316
vn -1.000000 0.000000 -0.000316
vn -1.000000 0.000000 -0.000316
vn -1.000000 0.000000 -0.000316
vn 1.000000 0.000000 0.000000
vn 1.000000 0.000000 0.000000
vn 1.000000 0.000000 0.000000
vn 1.000000 0.000000 0.000000
vn -0.139038 0.000000 -0.990287
vn -0.139038 0.000000 -0.990287
vn -0.139038 0.000000 -0.990287
vn -0.139038 0.000000 -0.990287
vn 0.456568 0.000000 0.889689
vn 0.456568 0.000000 0.889689
vn 0.456568 0.000000 0.889689
vn 0.456568 0.000000 0.889689
vn -0.140255 0.000000 0.990115
vn -0.140255 0.000000 0.990115
vn -0.140255 0.000000 0.990115
vn -0.140255 0.000000 0.990115
vn 0.158190 0.000000 -0.987409
vn 0.158190 0.000000 -0.987409
vn 0.158190 0.000000 -0.987409
vn 0.158190 0.000000 -0.987409
vn -0.134599 0.000000 0.990900
vn -0.134599 0.000000 0.990900
vn -0.134599 0.000000 0.990900
vn -0.134599 0.000000 0.990900
vn 0.457734 0.000000 -0.889089
vn 0.457734 0.000000 -0.889089
vn 0.457734 0.000000 -0.889089
vn 0.457734 0.000000 -0.889089
vn -0.136187 0.000000 -0.990683
vn -0.136187 0.000000 -0.990683
vn -0.136187 0.000000 -0.990683
vn -0.136187 0.000000 -0.990683
vn 0.130517 0.000000 0.991446
vn 0.130517 0.000000 0.991446
vn 0.130517 0.000000 0.991446
vn 0.130517 0.000000 0.991446
vn 0.999720 0.023655 -0.000051
vn 0.999720 0.023655 -0.000051
vn 0.999720 0.023655 -0.000051
vn 0.999720 0.023655 -0.000051
vn 1.000000 0.000000 -0.000101
vn 1.000000 0.000000 -0.000101
vn 1.000000 0.000000 -0.000101
vn 1.000000 0.000000 -0.000101
vn 0.000000 1.000000 0.000000
vn 0.000000 1.000000 0.000000
vn 0.000000 1.000000 0.000000
vn 0.000000 1.000000 0.000000
vn -1.000000 0.000000 0.000017
vn -1.000000 0.000000 0.000017
vn -1.000000 0.000000 0.000017
vn -1.000000 0.000000 0.000017
vn -0.999897 0.014340 0.000009
vn -0.999897 0.014340 0.000009
vn -0.999897 0.014340 0.000009
vn -0.999897 0.014340 0.000009
vn -0.999908 -0.013581 -0.000000
vn -0.999908 -0.013581 -0.000000
vn -0.999908 -0.013581 -0.000000
vn -0.999908 -0.013581 -0.000000
vn -0.779911 -0.625891 -0.000012
vn -0.779911 -0.625891 -0.000012
vn -0.779911 -0.625891 -0.000012
vn -0.779911 -0.625891 -0.000012
vn 0.000000 -1.000000 0.000000
vn 0.000000 -1.000000 0.000000
vn 0.000000 -1.000000 0.000000
vn 0.000000 -1.000000 0.000000
vn 0.137373 -0.990519 0.000001
vn 0.137373 -0.990520 0.000001
vn 0.137373 -0.990519 0.000001
vn 0.137373 -0.990520 0.000001
vn 0.271149 -0.962537 0.000000
vn 0.271149 -0.962537 0.000000
vn 0.271149 -0.962537 0.000000
vn 0.271149 -0.962537 0.000000
vn 0.599126 -0.800655 0.000001
vn 0.599126 -0.800655 0.000001
vn 0.599126 -0.800654 0.000001
vn 0.599126 -0.800655 0.000001
vn 0.291772 -0.956450 -0.008547
vn 0.291771 -0.956450 -0.008547
vn 0.291771 -0.956450 -0.008547
vn 0.291771 -0.956450 -0.008547
vn 0.173898 -0.984576 -0.019211
vn 0.173898 -0.984576 -0.019211
vn 0.173898 -0.984576 -0.019211
vn 0.173898 -0.984576 -0.019211
vn 0.036095 -0.999096 -0.022444
vn 0.036095 -0.999096 -0.022444
vn 0.036095 -0.999096 -0.022444
vn 0.036095 -0.999096 -0.022444
vn 0.147775 -0.988717 -0.024509
vn 0.147775 -0.988717 -0.024509
vn 0.147775 -0.988717 -0.024509
vn 0.147775 -0.988717 -0.024509
vn 0.946026 -0.324000 -0.007670
vn 0.946026 -0.324000 -0.007670
vn 0.946026 -0.324000 -0.007670
vn 0.946026 -0.324000 -0.007670
vn 0.756314 0.654169 0.007256
vn 0.756314 0.654169 0.007256
vn 0.756314 0.654169 0.007256
vn 0.756314 0.654169 0.007256
vn 0.467631 0.883849 0.011505
vn 0.467630 0.883849 0.011505
vn 0.467630 0.883849 0.011505
vn 0.467630 0.883849 0.011505
vn -0.024034 0.999696 0.005482
vn -0.024034 0.999696 0.005482
vn -0.024034 0.999696 0.005482
vn -0.024034 0.999696 0.005482
vn 0.063288 0.997995 0.000686
vn 0.063288 0.997995 0.000686
vn 0.063288 0.997995 0.000686
vn 0.063288 0.997995 0.000686
vn 0.062964 0.998016 -0.000002
vn 0.062964 0.998016 -0.000002
vn 0.062964 0.998016 -0.000002
vn 0.062964 0.998016 -0.000002
vn 0.036958 0.999317 0.000001
vn 0.036958 0.999317 0.000001
vn 0.036958 0.999317 0.000001
vn 0.036958 0.999317 0.000001
vn 0.599142 0.800643 -0.000000
vn 0.599142 0.800643 -0.000000
vn 0.599142 0.800643 -0.000000
vn 0.599142 0.800643 -0.000000
vn 0.599130 0.800652 0.000000
vn 0.599130 0.800652 0.000000
vn 0.599130 0.800652 0.000000
vn 0.599130 0.800652 0.000000
vn 0.999717 0.023779 -0.000092
vn 0.999717 0.023779 -0.000092
vn 0.999717 0.023779 -0.000092
vn 0.999717 0.023779 -0.000092
vn 1.000000 0.000000 -0.000185
vn 1.000000 0.000000 -0.000185
vn 1.000000 0.000000 -0.000185
vn 1.000000 0.000000 -0.000185
vn 0.000000 1.000000 0.000000
vn 0.000000 1.000000 0.000000
vn 0.000000 1.000000 0.000000
vn 0.000000 1.000000 0.000000
vn -1.000000 0.000000 0.000000
vn -1.000000 0.000000 0.000000
vn -1.000000 0.000000 0.000000
vn -1.000000 0.000000 0.000000
vn -0.999897 0.014336 0.000000
vn -0.999897 0.014336 0.000000
vn -0.999897 0.014336 0.000000
vn -0.999897 0.014336 0.000000
vn -0.999908 -0.013581 0.000000
vn -0.999908 -0.013581 0.000000
vn -0.999908 -0.013581 0.000000
vn -0.999908 -0.013581 0.000000
vn -0.780074 -0.625687 -0.000389
vn -0.780074 -0.625687 -0.000389
vn -0.780074 -0.625687 -0.000389
vn -0.780074 -0.625687 -0.000389
vn 0.000000 -1.000000 0.000010
vn 0.000000 -1.000000 0.000010
vn 0.000000 -1.000000 0.000010
vn 0.000000 -1.000000 0.000010
vn 0.137284 -0.990532 0.000013
vn 0.137284 -0.990532 0.000013
vn 0.137284 -0.990532 0.000013
vn 0.137284 -0.990532 0.000013
vn 0.271150 -0.962537 0.000000
vn 0.271150 -0.962537 0.000000
vn 0.271150 -0.962537 0.000000
vn 0.271150 -0.962537 0.000000
vn 0.599113 -0.800664 -0.000037
vn 0.599113 -0.800664 -0.000037
vn 0.599113 -0.800664 -0.000037
vn 0.599113 -0.800664 -0.000037
vn 0.530007 -0.847950 -0.008513
vn 0.530007 -0.847950 -0.008513
vn 0.530007 -0.847950 -0.008513
vn 0.530007 -0.847950 -0.008513
vn 0.309894 -0.950572 -0.019458
vn 0.309894 -0.950572 -0.019458
vn 0.309894 -0.950572 -0.019458
vn 0.309894 -0.950572 -0.019458
vn 0.036665 -0.999078 -0.022340
vn 0.036665 -0.999078 -0.022340
vn 0.036665 -0.999078 -0.022340
vn 0.036665 -0.999078 -0.022340
vn 0.147346 -0.988788 -0.024231
vn 0.147346 -0.988788 -0.024231
vn 0.147346 -0.988788 -0.024231
vn 0.147346 -0.988788 -0.024231
vn 0.946348 -0.323083 -0.006513
vn 0.946348 -0.323083 -0.006513
vn 0.946348 -0.323083 -0.006513
vn 0.946348 -0.323082 -0.006513
vn 0.756311 0.654166 0.007761
vn 0.756311 0.654166 0.007761
vn 0.756311 0.654166 0.007761
vn 0.756311 0.654166 0.007761
vn 0.467148 0.884098 0.011954
vn 0.467148 0.884098 0.011954
vn 0.467148 0.884098 0.011954
vn 0.467148 0.884098 0.011954
vn -0.024496 0.999683 0.005771
vn -0.024496 0.999683 0.005771
vn -0.024496 0.999683 0.005771
vn -0.024496 0.999683 0.005771
vn 0.063079 0.998008 0.000655
vn 0.063079 0.998008 0.000655
vn 0.063079 0.998008 0.000655
vn 0.063079 0.998008 0.000655
vn 0.062924 0.998018 -0.000109
vn 0.062924 0.998018 -0.000109
vn 0.062924 0.998018 -0.000109
vn 0.062924 0.998018 -0.000109
vn 0.036941 0.999318 0.000000
vn 0.036941 0.999317 0.000000
vn 0.036941 0.999317 0.000000
vn 0.036941 0.999318 0.000000
vn 0.599133 0.800649 0.000000
vn 0.599133 0.800649 0.000000
vn 0.599133 0.800649 0.000000
vn 0.599133 0.800649 0.000000
vn 0.599130 0.800652 0.000000
vn 0.599130 0.800652 0.000000
vn 0.599130 0.800652 0.000000
vn 0.599130 0.800652 0.000000
vn -0.999720 0.023654 -0.000052
vn -0.999720 0.023654 -0.000052
vn -0.999720 0.023654 -0.000052
vn -0.999720 0.023654 -0.000052
vn -1.000000 0.000000 -0.000102
vn -1.000000 0.000000 -0.000102
vn -1.000000 0.000000 -0.000102
vn -1.000000 0.000000 -0.000102
vn 0.000000 1.000000 -0.000000
vn 0.000000 1.000000 -0.000000
vn 0.000000 1.000000 -0.000000
vn 0.000000 1.000000 -0.000000
vn 1.000000 0.000000 0.000017
vn 1.000000 0.000000 0.000017
vn 1.000000 0.000000 0.000017
vn 1.000000 0.000000 0.000017
vn 0.999897 0.014340 0.000009
vn 0.999897 0.014340 0.000009
vn 0.999897 0.014340 0.000009
vn 0.999897 0.014340 0.000009
vn 0.999908 -0.013581 -0.000000
vn 0.999908 -0.013581 -0.000000
vn 0.999908 -0.013581 -0.000000
vn 0.999908 -0.013581 -0.000000
vn 0.779838 -0.625982 -0.000012
vn 0.779838 -0.625982 -0.000012
vn 0.779838 -0.625982 -0.000012
vn 0.779838 -0.625982 -0.000012
vn 0.000000 -1.000000 0.000000
vn 0.000000 -1.000000 0.000000
vn 0.000000 -1.000000 0.000000
vn 0.000000 -1.000000 0.000000
vn -0.137382 -0.990518 0.000001
vn -0.137382 -0.990518 0.000001
vn -0.137382 -0.990518 0.000001
vn -0.137382 -0.990518 0.000001
vn -0.271150 -0.962537 0.000000
vn -0.271150 -0.962537 0.000000
vn -0.271150 -0.962537 0.000000
vn -0.271150 -0.962537 0.000000
vn -0.599112 -0.800665 0.000000
vn -0.599112 -0.800665 0.000000
vn -0.599112 -0.800665 0.000000
vn -0.599112 -0.800665 0.000000
vn -0.250832 -0.968004 -0.007159
vn -0.250832 -0.968004 -0.007159
vn -0.250832 -0.968004 -0.007159
vn -0.250832 -0.968004 -0.007159
vn -0.136328 -0.990510 -0.017465
vn -0.136328 -0.990510 -0.017465
vn -0.136328 -0.990510 -0.017465
vn -0.136328 -0.990510 -0.017465
vn -0.070767 -0.997262 -0.021462
vn -0.070767 -0.997262 -0.021462
vn -0.070767 -0.997262 -0.021462
vn -0.070767 -0.997262 -0.021462
vn -0.150543 -0.988353 -0.022248
vn -0.150543 -0.988353 -0.022248
vn -0.150543 -0.988353 -0.022248
vn -0.150543 -0.988353 -0.022248
vn -0.946022 -0.324011 -0.007667
vn -0.946022 -0.324011 -0.007667
vn -0.946022 -0.324011 -0.007667
vn -0.946022 -0.324011 -0.007667
vn -0.756316 0.654166 0.007247
vn -0.756316 0.654166 0.007247
vn -0.756316 0.654166 0.007247
vn -0.756316 0.654166 0.007247
vn -0.467576 0.883878 0.011503
vn -0.467576 0.883878 0.011503
vn -0.467576 0.883878 0.011503
vn -0.467576 0.883878 0.011503
vn 0.026788 0.999625 0.005604
vn 0.026788 0.999626 0.005604
vn 0.026788 0.999625 0.005604
vn 0.026788 0.999626 0.005604
vn -0.095287 0.995450 0.000711
vn -0.095287 0.995450 0.000711
vn -0.095287 0.995450 0.000711
vn -0.095287 0.995450 0.000711
vn -0.062973 0.998015 -0.000002
vn -0.062973 0.998015 -0.000002
vn -0.062973 0.998015 -0.000002
vn -0.062973 0.998015 -0.000002
vn -0.036957 0.999317 0.000001
vn -0.036957 0.999317 0.000001
vn -0.036957 0.999317 0.000001
vn -0.036957 0.999317 0.000001
vn -0.599160 0.800630 -0.000001
vn -0.599160 0.800630 -0.000001
vn -0.599160 0.800630 -0.000001
vn -0.599160 0.800630 -0.000001
vn -0.599129 0.800652 -0.000000
vn -0.599129 0.800652 -0.000000
vn -0.599129 0.800652 -0.000000
vn -0.599129 0.800652 -0.000000
vn -0.999723 0.023531 0.000000
vn -0.999723 0.023531 0.000000
vn -0.999723 0.023531 0.000000
vn -0.999723 0.023531 0.000000
vn -1.000000 0.000000 0.000000
vn -1.000000 0.000000 0.000000
vn -1.000000 0.000000 0.000000
vn -1.000000 0.000000 0.000000
vn 0.000000 1.000000 0.000000
vn 0.000000 1.000000 0.000000
vn 0.000000 1.000000 0.000000
vn 0.000000 1.000000 0.000000
vn 1.000000 0.000000 0.000000
vn 1.000000 0.000000 0.000000
vn 1.000000 0.000000 0.000000
vn 1.000000 0.000000 0.000000
vn 0.999897 0.014344 0.000000
vn 0.999897 0.014344 0.000000
vn 0.999897 0.014344 0.000000
vn 0.999897 0.014344 0.000000
vn 0.999908 -0.013581 0.000000
vn 0.999908 -0.013581 0.000000
vn 0.999908 -0.013581 0.000000
vn 0.999908 -0.013581 0.000000
vn 0.779872 -0.625939 0.000000
vn 0.779872 -0.625939 0.000000
vn 0.779872 -0.625939 0.000000
vn 0.779872 -0.625939 0.000000
vn 0.000000 -1.000000 0.000000
vn 0.000000 -1.000000 0.000000
vn 0.000000 -1.000000 0.000000
vn 0.000000 -1.000000 0.000000
vn -0.137465 -0.990507 0.000000
vn -0.137465 -0.990507 0.000000
vn -0.137465 -0.990507 0.000000
vn -0.137465 -0.990507 0.000000
vn -0.271147 -0.962538 0.000000
vn -0.271147 -0.962538 0.000000
vn -0.271147 -0.962538 0.000000
vn -0.271147 -0.962538 0.000000
vn -0.599026 -0.800729 -0.000126
vn -0.599026 -0.800729 -0.000126
vn -0.599026 -0.800729 -0.000126
vn -0.599026 -0.800729 -0.000126
vn -0.039380 -0.999189 -0.008417
vn -0.039380 -0.999189 -0.008417
vn -0.039380 -0.999189 -0.008417
vn -0.039380 -0.999189 -0.008417
vn -0.043237 -0.998899 -0.018186
vn -0.043237 -0.998899 -0.018186
vn -0.043237 -0.998899 -0.018186
vn -0.043237 -0.998899 -0.018186
vn -0.069929 -0.997326 -0.021225
vn -0.069929 -0.997326 -0.021225
vn -0.069929 -0.997326 -0.021225
vn -0.069929 -0.997326 -0.021225
vn -0.150878 -0.988303 -0.022194
vn -0.150878 -0.988303 -0.022194
vn -0.150878 -0.988303 -0.022194
vn -0.150878 -0.988303 -0.022194
vn -0.945676 -0.325030 -0.007192
vn -0.945676 -0.325030 -0.007192
vn -0.945676 -0.325030 -0.007192
vn -0.945676 -0.325030 -0.007192
vn -0.756328 0.654128 0.009197
vn -0.756328 0.654128 0.009197
vn -0.756328 0.654128 0.009197
vn -0.756328 0.654128 0.009197
vn -0.468125 0.883566 0.013046
vn -0.468125 0.883566 0.013046
vn -0.468125 0.883566 0.013046
vn -0.468125 0.883566 0.013046
vn 0.026327 0.999637 0.005755
vn 0.026327 0.999637 0.005755
vn 0.026327 0.999637 0.005755
vn 0.026327 0.999637 0.005755
vn -0.095652 0.995414 0.000803
vn -0.095652 0.995415 0.000803
vn -0.095652 0.995415 0.000803
vn -0.095652 0.995414 0.000803
vn -0.063097 0.998007 -0.000014
vn -0.063097 0.998007 -0.000014
vn -0.063097 0.998007 -0.000014
vn -0.063097 0.998007 -0.000014
vn -0.036974 0.999316 -0.000005
vn -0.036974 0.999316 -0.000005
vn -0.036974 0.999316 -0.000005
vn -0.036974 0.999316 -0.000005
vn -0.599183 0.800612 0.000000
vn -0.599183 0.800612 0.000000
vn -0.599183 0.800612 0.000000
vn -0.599183 0.800612 0.000000
vn -0.599133 0.800650 0.000000
vn -0.599133 0.800650 0.000000
vn -0.599133 0.800650 0.000000
vn -0.599133 0.800650 0.000000
s off
g pick_axe_head:Group2
usemtl pick_axe_head:defaultMat
f 1/1/1 2/2/2 10/3/3 9/4/4
f 2/2/5 1/1/6 219/5/7 220/6/8
f 4/7/9 3/8/10 5/9/11 6/10/12
f 6/10/13 5/9/14 92/11/15 91/12/16
f 7/13/17 8/14/18 104/15/19 103/16/20
f 8/14/21 7/13/22 9/17/23 10/18/24
f 11/19/25 12/20/26 19/21/27 20/22/28
f 12/20/29 11/19/30 217/23/31 218/24/32
f 13/25/33 14/26/34 16/27/35 15/28/36
f 15/28/37 16/27/38 90/29/39 89/30/40
f 17/31/41 18/32/42 111/33/43 112/34/44
f 18/32/45 17/31/46 20/35/47 19/36/48
f 21/37/49 23/38/50 32/39/51 31/40/52
f 22/41/53 21/37/54 45/42/55 46/43/56
f 23/38/57 22/41/58 213/44/59 214/45/60
f 24/46/61 26/47/62 48/48/63 47/49/64
f 25/50/65 24/46/66 27/51/67 28/52/68
f 28/52/69 27/51/70 96/53/71 95/54/72
f 29/55/73 30/56/74 122/57/75 121/58/76
f 30/56/77 29/55/78 31/59/79 32/60/80
f 33/61/81 35/62/82 44/63/83 43/64/84
f 34/65/85 33/66/86 221/67/87 222/68/88
f 35/62/89 34/69/90 55/70/91 56/71/92
f 36/72/93 38/73/94 60/74/95 61/75/96
f 38/73/97 37/76/98 39/77/99 40/78/100
f 40/78/101 39/77/102 94/79/103 93/80/104
f 41/81/105 42/82/106 132/83/107 131/84/108
f 42/82/109 41/81/110 43/85/111 44/86/112
f 46/43/113 45/42/114 65/87/115 66/88/116
f 47/49/117 48/48/118 71/89/119 72/90/120
f 49/91/121 51/92/122 183/93/123 184/94/124
f 50/95/125 49/91/126 59/96/127 58/97/128
f 51/92/129 50/95/130 230/98/131 231/99/132
f 52/100/133 54/101/134 181/102/135 182/103/136
f 54/101/137 53/104/138 63/105/139 62/106/140
f 56/71/141 55/70/142 83/107/143 84/108/144
f 57/109/145 59/96/146 177/110/147 178/111/148
f 58/97/149 57/109/150 228/112/151 229/113/152
f 61/75/153 60/74/154 77/114/155 78/115/156
f 62/106/157 64/116/158 179/117/159 180/118/160
f 66/88/161 65/87/162 68/119/163 67/120/164
f 67/120/165 70/121/166 233/122/167 234/123/168
f 69/124/169 68/119/170 85/125/171 88/126/172
f 72/90/173 71/89/174 76/127/175 75/128/176
f 75/128/177 74/129/178 81/130/179 80/131/180
f 78/115/181 77/114/182 80/131/183 79/132/184
f 225/133/185 226/134/186 87/135/187 86/136/188
f 84/108/189 83/107/190 86/137/191 85/125/192
f 89/30/193 90/29/194 110/138/195 109/139/196
f 91/12/197 92/11/198 101/140/199 102/141/200
f 93/80/201 94/79/202 129/142/203 130/143/204
f 95/54/205 96/53/206 119/144/207 120/145/208
f 97/146/209 98/147/210 103/16/211 104/15/212
f 267/148/213 268/149/214 100/150/215 99/151/216
f 99/151/217 100/150/218 102/141/219 101/140/220
f 105/152/221 106/153/222 112/34/223 111/33/224
f 265/154/225 266/155/226 107/156/227 108/157/228
f 108/157/229 107/156/230 109/139/231 110/138/232
f 113/158/233 115/159/234 121/58/235 122/57/236
f 261/160/237 262/161/238 117/162/239 116/163/240
f 115/159/241 114/164/242 134/165/243 133/166/244
f 116/163/245 118/167/246 135/168/247 136/169/248
f 118/167/249 117/162/250 120/145/251 119/144/252
f 123/170/253 125/171/254 131/84/255 132/83/256
f 124/172/257 123/170/258 144/173/259 143/174/260
f 269/175/261 270/176/262 128/177/263 127/178/264
f 126/179/265 128/177/266 149/180/267 148/181/268
f 127/178/269 126/179/270 130/143/271 129/142/272
f 133/166/273 134/165/274 153/182/275 154/183/276
f 136/169/277 135/168/278 159/184/279 160/185/280
f 191/186/281 192/187/282 156/188/283 155/189/284
f 278/190/285 279/191/286 142/192/287 141/193/288
f 139/194/289 138/195/290 146/196/291 145/197/292
f 189/198/293 190/199/294 164/200/295 163/201/296
f 141/193/297 140/202/298 152/203/299 151/204/300
f 143/174/301 144/173/302 171/205/303 172/206/304
f 185/207/305 186/208/306 174/209/307 173/210/308
f 276/211/309 277/212/310 151/204/311 150/213/312
f 148/181/313 149/180/314 165/214/315 166/215/316
f 187/216/317 188/217/318 168/218/319 167/219/320
f 154/183/321 153/182/322 158/220/323 157/221/324
f 281/222/325 282/223/326 161/224/327 164/200/328
f 157/221/329 156/188/330 173/210/331 176/225/332
f 160/185/333 159/184/334 162/226/335 161/224/336
f 163/201/337 162/226/338 169/227/339 168/218/340
f 166/215/341 165/214/342 170/228/343 169/227/344
f 167/219/345 170/228/346 273/229/347 274/230/348
f 172/206/349 171/205/350 176/225/351 175/231/352
f 219/5/353 1/1/354 12/232/355 218/233/356
f 5/9/357 3/8/358 13/234/359 15/235/360
f 9/17/361 7/13/362 18/236/363 19/237/364
f 216/238/365 193/239/366 195/240/367 215/241/368
f 197/242/369 198/243/370 194/244/371 196/245/372
f 199/246/373 200/247/374 201/248/375 202/249/376
f 230/98/377 50/95/378 58/97/379 229/113/380
f 27/51/381 24/46/382 38/73/383 40/78/384
f 31/59/385 29/55/386 42/82/387 44/86/388
f 221/67/389 33/66/390 2/2/391 220/6/392
f 39/77/393 37/76/394 4/7/395 6/10/396
f 43/85/397 41/81/398 8/250/399 10/251/400
f 236/252/401 213/44/402 22/41/403 46/43/404
f 21/37/405 35/62/406 56/71/407 45/42/408
f 34/65/409 222/68/410 223/253/411 55/254/412
f 38/73/413 24/46/414 47/49/415 60/74/416
f 235/255/417 66/88/418 67/120/419 234/123/420
f 77/114/421 72/90/422 75/128/423 80/131/424
f 83/256/425 224/257/426 225/133/427 86/136/428
f 65/87/429 84/108/430 85/125/431 68/119/432
f 180/118/433 181/102/434 54/101/435 62/106/436
f 178/258/437 227/259/438 228/260/439 57/261/440
f 184/94/441 177/110/442 59/96/443 49/91/444
f 232/262/445 183/93/446 51/92/447 231/99/448
f 60/74/449 47/49/450 72/90/451 77/114/452
f 55/254/453 223/253/454 224/257/455 83/256/456
f 45/42/457 56/71/458 84/108/459 65/87/460
f 236/252/461 46/43/462 66/88/463 235/255/464
f 1/1/465 9/4/466 19/263/467 12/232/468
f 33/66/469 43/264/470 10/3/471 2/2/472
f 21/37/473 31/40/474 44/63/475 35/62/476
f 193/239/477 200/265/478 199/266/479 195/240/480
f 92/11/481 5/9/482 15/235/483 89/267/484
f 94/79/485 39/77/486 6/10/487 91/12/488
f 96/53/489 27/51/490 40/78/491 93/80/492
f 203/268/493 198/243/494 197/242/495 204/269/496
f 99/151/497 107/270/498 266/271/499 267/148/500
f 101/140/501 109/272/502 107/270/503 99/151/504
f 103/16/505 111/273/506 18/236/507 7/13/508
f 205/274/509 206/275/510 263/276/511 264/277/512
f 209/278/513 206/275/514 205/274/515 210/279/516
f 211/280/517 202/249/518 201/248/519 212/281/520
f 141/193/521 151/204/522 277/212/523 278/190/524
f 119/144/525 130/143/526 126/179/527 118/167/528
f 121/58/529 132/83/530 42/82/531 29/55/532
f 127/178/533 100/150/534 268/149/535 269/175/536
f 129/142/537 102/141/538 100/150/539 127/178/540
f 131/84/541 104/282/542 8/250/543 41/81/544
f 116/163/545 136/169/546 284/283/547 261/160/548
f 115/159/549 133/166/550 144/173/551 123/170/552
f 270/176/553 271/284/554 149/180/555 128/177/556
f 126/179/557 148/181/558 135/168/559 118/167/560
f 160/185/561 161/224/562 282/223/563 283/285/564
f 166/215/565 169/227/566 162/226/567 159/184/568
f 272/286/569 273/229/570 170/228/571 165/214/572
f 154/183/573 157/221/574 176/225/575 171/205/576
f 168/218/577 188/217/578 189/198/579 163/201/580
f 274/230/581 275/287/582 187/216/583 167/219/584
f 156/188/585 192/187/586 185/207/587 173/210/588
f 164/200/589 190/199/590 280/288/591 281/222/592
f 148/181/593 166/215/594 159/184/595 135/168/596
f 271/284/597 272/286/598 165/214/599 149/180/600
f 133/166/601 154/183/602 171/205/603 144/173/604
f 136/169/605 160/185/606 283/285/607 284/283/608
f 98/147/609 105/289/610 111/273/611 103/16/612
f 125/290/613 97/146/614 104/15/615 131/291/616
f 115/159/617 123/170/618 132/83/619 121/58/620
f 208/292/621 207/293/622 211/280/623 212/281/624
f 92/11/625 89/267/626 109/272/627 101/140/628
f 94/79/629 91/12/630 102/141/631 129/142/632
f 96/53/633 93/80/634 130/143/635 119/144/636
f 203/268/637 204/269/638 209/278/639 210/279/640
f 21/37/641 22/41/642 23/38/643
f 24/46/644 25/50/645 26/47/646
f 33/61/647 34/69/648 35/62/649
f 36/72/650 37/76/651 38/73/652
f 49/91/653 50/95/654 51/92/655
f 52/100/656 53/104/657 54/101/658
f 57/109/659 58/97/660 59/96/661
f 62/106/662 63/105/663 64/116/664
f 67/120/665 68/119/666 69/124/667 70/121/668
f 73/294/669 74/129/670 75/128/671 76/127/672
f 79/132/673 80/131/674 81/130/675 82/295/676
f 85/125/677 86/137/678 87/296/679 88/126/680
f 113/158/681 114/164/682 115/159/683
f 116/163/684 117/162/685 118/167/686
f 123/170/687 124/172/688 125/171/689
f 126/179/690 127/178/691 128/177/692
f 137/297/693 138/195/694 139/194/695
f 140/202/696 141/193/697 142/192/698
f 145/197/699 146/196/700 147/298/701
f 150/213/702 151/204/703 152/203/704
f 155/189/705 156/188/706 157/221/707 158/220/708
f 161/224/709 162/226/710 163/201/711 164/200/712
f 167/219/713 168/218/714 169/227/715 170/228/716
f 173/210/717 174/209/718 175/231/719 176/225/720
f 178/111/721 177/110/722 88/126/723 87/296/724
f 87/135/725 226/134/726 227/259/727 178/258/728
f 180/118/729 179/117/730 82/295/731 81/130/732
f 81/130/733 74/129/734 181/102/735 180/118/736
f 182/103/737 181/102/738 74/129/739 73/294/740
f 233/122/741 70/121/742 183/93/743 232/262/744
f 184/94/745 183/93/746 70/121/747 69/124/748
f 69/124/749 88/126/750 177/110/751 184/94/752
f 145/197/753 147/298/754 186/208/755 185/207/756
f 187/216/757 275/287/758 276/299/759 150/213/760
f 150/213/761 152/203/762 188/217/763 187/216/764
f 189/198/765 188/217/766 152/203/767 140/202/768
f 140/202/769 142/192/770 190/199/771 189/198/772
f 280/288/773 190/199/774 142/192/775 279/191/776
f 137/297/777 139/194/778 192/187/779 191/186/780
f 185/207/781 192/187/782 139/194/783 145/197/784
f 217/23/785 11/19/786 193/239/787 216/238/788
f 23/38/789 214/45/790 215/241/791 195/240/792
f 16/27/793 14/26/794 194/244/795 198/243/796
f 25/50/797 28/52/798 197/242/799 196/245/800
f 20/35/801 17/31/802 201/248/803 200/247/804
f 30/56/805 32/60/806 199/246/807 202/249/808
f 11/19/809 20/22/810 200/265/811 193/239/812
f 32/39/813 23/38/814 195/240/815 199/266/816
f 90/29/817 16/27/818 198/243/819 203/268/820
f 28/52/821 95/54/822 204/269/823 197/242/824
f 117/162/825 262/161/826 263/276/827 206/275/828
f 265/154/829 108/157/830 205/274/831 264/277/832
f 120/145/833 117/162/834 206/275/835 209/278/836
f 108/157/837 110/138/838 210/279/839 205/274/840
f 122/57/841 30/56/842 202/249/843 211/280/844
f 17/31/845 112/34/846 212/281/847 201/248/848
f 113/158/849 122/57/850 211/280/851 207/293/852
f 112/34/853 106/153/854 208/292/855 212/281/856
f 95/54/857 120/145/858 209/278/859 204/269/860
f 110/138/861 90/29/862 203/268/863 210/279/864
f 214/45/865 213/44/866 237/300/867 238/301/868
f 215/241/869 214/45/870 238/301/871 239/302/872
f 240/303/873 216/238/874 215/241/875 239/302/876
f 241/304/877 217/23/878 216/238/879 240/303/880
f 218/24/881 217/23/882 241/304/883 242/305/884
f 243/306/885 219/5/886 218/233/887 242/307/888
f 220/6/889 219/5/890 243/306/891 244/308/892
f 245/309/893 221/67/894 220/6/895 244/308/896
f 222/68/897 221/67/898 245/309/899 246/310/900
f 223/253/901 222/68/902 246/310/903 247/311/904
f 224/257/905 223/253/906 247/311/907 248/312/908
f 225/133/909 224/257/910 248/312/911 249/313/912
f 249/313/913 250/314/914 226/134/915 225/133/916
f 227/259/917 226/134/918 250/314/919 251/315/920
f 228/260/921 227/259/922 251/315/923 252/316/924
f 229/113/925 228/112/926 252/317/927 253/318/928
f 254/319/929 230/98/930 229/113/931 253/318/932
f 231/99/933 230/98/934 254/319/935 255/320/936
f 256/321/937 232/262/938 231/99/939 255/320/940
f 257/322/941 233/122/942 232/262/943 256/321/944
f 234/123/945 233/122/946 257/322/947 258/323/948
f 259/324/949 235/255/950 234/123/951 258/323/952
f 260/325/953 236/252/954 235/255/955 259/324/956
f 260/325/957 237/300/958 213/44/959 236/252/960
f 238/301/961 237/300/962 26/47/963 25/50/964
f 239/302/965 238/301/966 25/50/967 196/245/968
f 194/244/969 240/303/970 239/302/971 196/245/972
f 14/26/973 241/304/974 240/303/975 194/244/976
f 242/305/977 241/304/978 14/26/979 13/25/980
f 3/8/981 243/306/982 242/307/983 13/234/984
f 244/308/985 243/306/986 3/8/987 4/7/988
f 37/76/989 245/309/990 244/308/991 4/7/992
f 246/310/993 245/309/994 37/76/995 36/72/996
f 247/311/997 246/310/998 36/72/999 61/75/1000
f 248/312/1001 247/311/1002 61/75/1003 78/115/1004
f 249/313/1005 248/312/1006 78/115/1007 79/132/1008
f 79/132/1009 82/295/1010 250/314/1011 249/313/1012
f 251/315/1013 250/314/1014 82/295/1015 179/117/1016
f 252/316/1017 251/315/1018 179/117/1019 64/116/1020
f 253/318/1021 252/317/1022 64/116/1023 63/105/1024
f 53/104/1025 254/319/1026 253/318/1027 63/105/1028
f 255/320/1029 254/319/1030 53/104/1031 52/100/1032
f 182/103/1033 256/321/1034 255/320/1035 52/100/1036
f 73/294/1037 257/322/1038 256/321/1039 182/103/1040
f 258/323/1041 257/322/1042 73/294/1043 76/127/1044
f 71/89/1045 259/324/1046 258/323/1047 76/127/1048
f 48/48/1049 260/325/1050 259/324/1051 71/89/1052
f 26/47/1053 237/300/1054 260/325/1055 48/48/1056
f 285/326/1057 286/327/1058 262/161/1059 261/160/1060
f 263/276/1061 262/161/1062 286/327/1063 287/328/1064
f 264/277/1065 263/276/1066 287/328/1067 288/329/1068
f 289/330/1069 265/154/1070 264/277/1071 288/329/1072
f 289/330/1073 290/331/1074 266/155/1075 265/154/1076
f 267/148/1077 266/271/1078 290/332/1079 291/333/1080
f 291/333/1081 292/334/1082 268/149/1083 267/148/1084
f 269/175/1085 268/149/1086 292/334/1087 293/335/1088
f 293/335/1089 294/336/1090 270/176/1091 269/175/1092
f 294/336/1093 295/337/1094 271/284/1095 270/176/1096
f 295/337/1097 296/338/1098 272/286/1099 271/284/1100
f 296/338/1101 297/339/1102 273/229/1103 272/286/1104
f 274/230/1105 273/229/1106 297/339/1107 298/340/1108
f 298/340/1109 299/341/1110 275/287/1111 274/230/1112
f 276/299/1113 275/287/1114 299/341/1115 300/342/1116
f 300/343/1117 301/344/1118 277/212/1119 276/211/1120
f 278/190/1121 277/212/1122 301/344/1123 302/345/1124
f 302/345/1125 303/346/1126 279/191/1127 278/190/1128
f 304/347/1129 280/288/1130 279/191/1131 303/346/1132
f 281/222/1133 280/288/1134 304/347/1135 305/348/1136
f 305/348/1137 306/349/1138 282/223/1139 281/222/1140
f 283/285/1141 282/223/1142 306/349/1143 307/350/1144
f 284/283/1145 283/285/1146 307/350/1147 308/351/1148
f 261/160/1149 284/283/1150 308/351/1151 285/326/1152
f 114/164/1153 113/158/1154 286/327/1155 285/326/1156
f 287/328/1157 286/327/1158 113/158/1159 207/293/1160
f 288/329/1161 287/328/1162 207/293/1163 208/292/1164
f 106/153/1165 289/330/1166 288/329/1167 208/292/1168
f 106/153/1169 105/152/1170 290/331/1171 289/330/1172
f 291/333/1173 290/332/1174 105/289/1175 98/147/1176
f 98/147/1177 97/146/1178 292/334/1179 291/333/1180
f 293/335/1181 292/334/1182 97/146/1183 125/290/1184
f 125/290/1185 124/352/1186 294/336/1187 293/335/1188
f 124/352/1189 143/353/1190 295/337/1191 294/336/1192
f 143/353/1193 172/354/1194 296/338/1195 295/337/1196
f 172/354/1197 175/355/1198 297/339/1199 296/338/1200
f 298/340/1201 297/339/1202 175/355/1203 174/356/1204
f 174/356/1205 186/357/1206 299/341/1207 298/340/1208
f 300/342/1209 299/341/1210 186/357/1211 147/358/1212
f 147/298/1213 146/196/1214 301/344/1215 300/343/1216
f 302/345/1217 301/344/1218 146/196/1219 138/195/1220
f 138/195/1221 137/297/1222 303/346/1223 302/345/1224
f 191/186/1225 304/347/1226 303/346/1227 137/297/1228
f 305/348/1229 304/347/1230 191/186/1231 155/189/1232
f 155/189/1233 158/220/1234 306/349/1235 305/348/1236
f 307/350/1237 306/349/1238 158/220/1239 153/182/1240
f 308/351/1241 307/350/1242 153/182/1243 134/165/1244
f 285/326/1245 308/351/1246 134/165/1247 114/164/1248
g default
v -0.475955 -0.704152 0.089091
v 0.475955 -0.704152 0.089091
v -0.464995 0.803280 0.175405
v 0.464996 0.803280 0.175405
v -0.464995 0.803280 -0.175405
v 0.464996 0.803280 -0.175405
v -0.475955 -0.704152 -0.089091
v 0.475955 -0.704152 -0.089091
v -0.385309 1.124651 0.178581
v 0.385309 1.124651 0.178581
v 0.385309 1.124651 -0.178581
v -0.385309 1.124651 -0.178581
v -0.227132 8.471171 0.122140
v 0.227132 8.471171 0.122140
v 0.227132 8.471171 -0.122140
v -0.227132 8.471171 -0.122140
v -0.141768 0.803280 -0.246116
v -0.141768 -0.704152 -0.246116
v -0.141768 -0.704152 0.246116
v -0.141768 0.803280 0.246116
v -0.117473 1.124651 0.250572
v -0.069248 8.471171 0.122140
v -0.069248 8.471171 -0.122140
v -0.117473 1.124651 -0.250572
v 0.111461 0.803280 -0.246116
v 0.111461 -0.704152 -0.246116
v 0.111461 -0.704152 0.246116
v 0.111461 0.803280 0.246116
v 0.092360 1.124651 0.250572
v 0.054444 8.471171 0.122140
v 0.054444 8.471171 -0.122140
v 0.092360 1.124651 -0.250572
v -0.580188 -0.704152 -0.008466
v -0.464996 0.803280 -0.008466
v -0.385309 1.124651 -0.008619
v -0.227132 8.471171 -0.005895
v -0.069248 8.471171 -0.005895
v 0.054444 8.471171 -0.005895
v 0.227132 8.471171 -0.005895
v 0.385309 1.124651 -0.008619
v 0.464996 0.803280 -0.008466
v 0.580188 -0.704152 -0.008466
v 0.111461 -0.704152 -0.011879
v -0.141768 -0.704152 -0.011879
v -0.141768 -0.687836 -0.246116
v -0.475836 -0.687836 -0.090025
v -0.578942 -0.687836 -0.008466
v -0.475836 -0.687836 0.090025
v -0.141768 -0.687836 0.246116
v 0.111461 -0.687836 0.246116
v 0.475836 -0.687836 0.090025
v 0.578942 -0.687836 -0.008466
v 0.475836 -0.687836 -0.090025
v 0.111461 -0.687836 -0.246116
v -0.069371 8.445858 -0.122395
v -0.227536 8.445858 -0.122201
v -0.227536 8.445858 -0.005898
v -0.227536 8.445858 0.122201
v -0.069371 8.445858 0.122395
v 0.054541 8.445858 0.122395
v 0.227536 8.445858 0.122201
v 0.227536 8.445858 -0.005898
v 0.227536 8.445858 -0.122201
v 0.054541 8.445858 -0.122395
vt 0.120470 0.971480
vt 0.083070 0.970840
vt 0.083710 0.815880
vt 0.116790 0.816950
vt 0.134820 0.016630
vt 0.134820 0.006520
vt 0.157050 0.014550
vt 0.145910 0.017900
vt 0.151260 0.816670
vt 0.184350 0.815660
vt 0.185530 0.970340
vt 0.148360 0.972430
vt 0.148630 0.974100
vt 0.185640 0.971950
vt 0.182060 0.995600
vt 0.134820 0.976630
vt 0.265050 0.974590
vt 0.251320 0.972780
vt 0.247100 0.814990
vt 0.264360 0.814610
vt 0.134820 0.974030
vt 0.134820 0.817170
vt 0.085420 0.782420
vt 0.114860 0.783350
vt 0.236460 0.780710
vt 0.254240 0.779420
vt 0.182430 0.782420
vt 0.152960 0.783330
vt 0.134820 0.783290
vt 0.122340 0.018910
vt 0.107010 0.017580
vt 0.111330 0.015180
vt 0.122370 0.017080
vt 0.203600 0.013490
vt 0.191750 0.015230
vt 0.191660 0.013780
vt 0.198720 0.008400
vt 0.161490 0.017360
vt 0.146140 0.019020
vt 0.134820 0.019030
vt 0.210100 0.815220
vt 0.210900 0.970600
vt 0.210730 0.972250
vt 0.213130 0.995540
vt 0.057900 0.970810
vt 0.057960 0.815310
vt 0.063220 0.781740
vt 0.094520 0.016710
vt 0.096450 0.013840
vt 0.166240 0.002330
vt 0.172090 0.013510
vt 0.174010 0.016390
vt 0.204650 0.781710
vt 0.250990 0.974360
vt 0.264860 0.977030
vt 0.017410 0.972850
vt 0.020990 0.815070
vt 0.031410 0.780740
vt 0.076790 0.015690
vt 0.077460 0.014380
vt 0.102810 0.001950
vt 0.068540 0.008710
vt 0.063780 0.013800
vt 0.001950 0.815250
vt 0.011810 0.779330
vt 0.003080 0.976380
vt 0.058140 0.972450
vt 0.055410 0.998040
vt 0.004030 0.979210
vt 0.017550 0.974290
vt 0.082910 0.972510
vt 0.087610 0.996750
vt 0.120530 0.972850
vn -0.326074 -0.025869 0.944990
vn -0.326074 -0.025869 0.944990
vn -0.326074 -0.025869 0.944990
vn -0.326074 -0.025869 0.944990
vn 0.000000 1.000000 0.000000
vn 0.000000 1.000000 0.000000
vn 0.000000 1.000000 0.000000
vn 0.000000 1.000000 0.000000
vn -0.326074 -0.025869 -0.944990
vn -0.326074 -0.025869 -0.944990
vn -0.326074 -0.025869 -0.944990
vn -0.326074 -0.025869 -0.944990
vn 0.000000 -1.000000 -0.000000
vn 0.000000 -1.000000 -0.000000
vn 0.000000 -1.000000 -0.000000
vn 0.000000 -1.000000 -0.000000
vn 0.923296 0.027666 -0.383091
vn 0.923296 0.027666 -0.383091
vn 0.923296 0.027666 -0.383091
vn 0.923296 0.027666 -0.383091
vn -0.923295 0.027666 -0.383094
vn -0.923295 0.027666 -0.383094
vn -0.923295 0.027666 -0.383094
vn -0.923295 0.027666 -0.383094
vn -0.234610 0.026416 0.971731
vn -0.234610 0.026416 0.971731
vn -0.234610 0.026416 0.971731
vn -0.234610 0.026416 0.971731
vn 0.970607 0.240671 0.000000
vn 0.970607 0.240671 0.000000
vn 0.970607 0.240671 0.000000
vn 0.970607 0.240671 0.000000
vn -0.234610 0.026416 -0.971731
vn -0.234610 0.026416 -0.971731
vn -0.234610 0.026416 -0.971731
vn -0.234610 0.026416 -0.971731
vn -0.970607 0.240669 -0.000003
vn -0.970607 0.240669 -0.000003
vn -0.970607 0.240669 -0.000003
vn -0.970607 0.240669 -0.000003
vn -0.000614 0.006248 0.999980
vn -0.000614 0.006248 0.999980
vn -0.000614 0.006248 0.999980
vn -0.000614 0.006248 0.999980
vn 0.999873 0.015957 0.000000
vn 0.999873 0.015957 0.000000
vn 0.999873 0.015957 0.000000
vn 0.999873 0.015957 0.000000
vn -0.000614 0.006248 -0.999980
vn -0.000614 0.006248 -0.999980
vn -0.000614 0.006248 -0.999980
vn -0.000614 0.006248 -0.999980
vn -0.999873 0.015957 0.000000
vn -0.999873 0.015957 0.000000
vn -0.999873 0.015957 0.000000
vn -0.999873 0.015957 0.000000
vn 0.000000 0.000000 -1.000000
vn 0.000000 0.000000 -1.000000
vn 0.000000 0.000000 -1.000000
vn 0.000000 0.000000 -1.000000
vn 0.000000 -1.000000 0.000000
vn 0.000000 -1.000000 0.000000
vn 0.000000 -1.000000 0.000000
vn 0.000000 -1.000000 0.000000
vn 0.000000 0.000000 1.000000
vn 0.000000 0.000000 1.000000
vn 0.000000 0.000000 1.000000
vn 0.000000 0.000000 1.000000
vn 0.000000 -0.013864 0.999904
vn 0.000000 -0.013864 0.999904
vn 0.000000 -0.013864 0.999904
vn 0.000000 -0.013864 0.999904
vn 0.000000 0.010073 0.999949
vn 0.000000 0.010073 0.999949
vn 0.000000 0.010073 0.999949
vn 0.000000 0.010073 0.999949
vn 0.000000 1.000000 0.000000
vn 0.000000 1.000000 0.000000
vn 0.000000 1.000000 0.000000
vn 0.000000 1.000000 0.000000
vn 0.000000 0.010073 -0.999949
vn 0.000000 0.010073 -0.999949
vn 0.000000 0.010073 -0.999949
vn 0.000000 0.010073 -0.999949
vn 0.000000 -0.013864 -0.999904
vn 0.000000 -0.013864 -0.999904
vn 0.000000 -0.013864 -0.999904
vn 0.000000 -0.013864 -0.999904
vn 0.301143 -0.026196 -0.953219
vn 0.301143 -0.026196 -0.953219
vn 0.301143 -0.026196 -0.953219
vn 0.301143 -0.026196 -0.953219
vn 0.000000 -1.000000 0.000000
vn 0.000000 -1.000000 0.000000
vn 0.000000 -1.000000 0.000000
vn 0.000000 -1.000000 0.000000
vn 0.301143 -0.026196 0.953219
vn 0.301143 -0.026196 0.953219
vn 0.301143 -0.026196 0.953219
vn 0.301143 -0.026196 0.953219
vn 0.215499 0.021529 0.976267
vn 0.215499 0.021529 0.976267
vn 0.215499 0.021529 0.976267
vn 0.215499 0.021529 0.976267
vn 0.000561 0.006247 0.999980
vn 0.000561 0.006247 0.999980
vn 0.000561 0.006247 0.999980
vn 0.000561 0.006247 0.999980
vn 0.000000 1.000000 0.000000
vn 0.000000 1.000000 0.000000
vn 0.000000 1.000000 0.000000
vn 0.000000 1.000000 0.000000
vn 0.000561 0.006248 -0.999980
vn 0.000561 0.006248 -0.999980
vn 0.000561 0.006248 -0.999980
vn 0.000561 0.006248 -0.999980
vn 0.215499 0.021529 -0.976267
vn 0.215499 0.021529 -0.976267
vn 0.215499 0.021529 -0.976267
vn 0.215499 0.021529 -0.976267
vn -0.938925 0.029472 0.342857
vn -0.938925 0.029472 0.342857
vn -0.938925 0.029472 0.342857
vn -0.938925 0.029472 0.342857
vn -0.970607 0.240669 0.000003
vn -0.970607 0.240669 0.000003
vn -0.970607 0.240669 0.000003
vn -0.970607 0.240669 0.000003
vn -0.999873 0.015958 0.000000
vn -0.999873 0.015958 0.000000
vn -0.999873 0.015958 0.000000
vn -0.999873 0.015958 0.000000
vn 0.000000 1.000000 0.000000
vn 0.000000 1.000000 0.000000
vn 0.000000 1.000000 0.000000
vn 0.000000 1.000000 0.000000
vn 0.000000 1.000000 0.000000
vn 0.000000 1.000000 0.000000
vn 0.000000 1.000000 0.000000
vn 0.000000 1.000000 0.000000
vn 0.000000 1.000000 0.000000
vn 0.000000 1.000000 0.000000
vn 0.000000 1.000000 0.000000
vn 0.000000 1.000000 0.000000
vn 0.999873 0.015959 0.000000
vn 0.999873 0.015959 0.000000
vn 0.999873 0.015959 0.000000
vn 0.999873 0.015959 0.000000
vn 0.970607 0.240671 0.000000
vn 0.970607 0.240671 0.000000
vn 0.970607 0.240671 0.000000
vn 0.970607 0.240671 0.000000
vn 0.938926 0.029472 0.342854
vn 0.938926 0.029472 0.342854
vn 0.938926 0.029472 0.342854
vn 0.938926 0.029472 0.342854
vn 0.000000 -1.000000 0.000000
vn 0.000000 -1.000000 0.000000
vn 0.000000 -1.000000 0.000000
vn 0.000000 -1.000000 0.000000
vn 0.000000 -1.000000 0.000000
vn 0.000000 -1.000000 0.000000
vn 0.000000 -1.000000 0.000000
vn 0.000000 -1.000000 0.000000
vn 0.000000 -1.000000 0.000000
vn 0.000000 -1.000000 0.000000
vn 0.000000 -1.000000 0.000000
vn 0.000000 -1.000000 0.000000
vn -0.424166 -0.024363 -0.905257
vn -0.424166 -0.024363 -0.905257
vn -0.424166 -0.024363 -0.905257
vn -0.424166 -0.024363 -0.905257
vn -0.616112 0.003226 -0.787652
vn -0.616112 0.003226 -0.787652
vn -0.616112 0.003226 -0.787652
vn -0.616112 0.003226 -0.787652
vn -0.687023 0.007942 0.726593
vn -0.687023 0.007942 0.726593
vn -0.687023 0.007942 0.726592
vn -0.687023 0.007942 0.726592
vn -0.424166 -0.024363 0.905257
vn -0.424166 -0.024363 0.905257
vn -0.424166 -0.024363 0.905257
vn -0.424166 -0.024363 0.905257
vn 0.000000 0.000000 1.000000
vn 0.000000 0.000000 1.000000
vn 0.000000 0.000000 1.000000
vn 0.000000 0.000000 1.000000
vn 0.394590 -0.024851 0.918521
vn 0.394590 -0.024851 0.918521
vn 0.394590 -0.024851 0.918521
vn 0.394590 -0.024851 0.918521
vn 0.687023 0.007941 0.726593
vn 0.687023 0.007941 0.726593
vn 0.687023 0.007941 0.726593
vn 0.687023 0.007941 0.726593
vn 0.616113 0.003227 -0.787652
vn 0.616113 0.003227 -0.787652
vn 0.616113 0.003227 -0.787652
vn 0.616113 0.003227 -0.787652
vn 0.394590 -0.024851 -0.918521
vn 0.394589 -0.024851 -0.918521
vn 0.394590 -0.024851 -0.918521
vn 0.394590 -0.024851 -0.918521
vn 0.000000 0.000000 -1.000000
vn 0.000000 0.000000 -1.000000
vn 0.000000 0.000000 -1.000000
vn 0.000000 0.000000 -1.000000
vn -0.167050 0.014775 -0.985838
vn -0.167050 0.014775 -0.985838
vn -0.167050 0.014775 -0.985838
vn -0.167050 0.014775 -0.985838
vn -0.999768 0.021545 0.000000
vn -0.999768 0.021545 0.000000
vn -0.999768 0.021545 0.000000
vn -0.999768 0.021545 0.000000
vn -0.999768 0.021545 0.000000
vn -0.999768 0.021545 0.000000
vn -0.999768 0.021545 0.000000
vn -0.999768 0.021545 0.000000
vn -0.167050 0.014775 0.985838
vn -0.167050 0.014775 0.985838
vn -0.167050 0.014775 0.985838
vn -0.167050 0.014775 0.985838
vn 0.000000 0.017505 0.999847
vn 0.000000 0.017505 0.999847
vn 0.000000 0.017505 0.999847
vn 0.000000 0.017505 0.999847
vn 0.153081 0.014499 0.988107
vn 0.153081 0.014499 0.988107
vn 0.153081 0.014499 0.988107
vn 0.153081 0.014499 0.988107
vn 0.999768 0.021545 0.000000
vn 0.999768 0.021545 0.000000
vn 0.999768 0.021545 0.000000
vn 0.999768 0.021545 0.000000
vn 0.999768 0.021545 0.000000
vn 0.999768 0.021545 0.000000
vn 0.999768 0.021545 0.000000
vn 0.999768 0.021545 0.000000
vn 0.153081 0.014499 -0.988107
vn 0.153081 0.014499 -0.988107
vn 0.153081 0.014499 -0.988107
vn 0.153081 0.014499 -0.988107
vn 0.000000 0.017505 -0.999847
vn 0.000000 0.017505 -0.999847
vn 0.000000 0.017505 -0.999847
vn 0.000000 0.017505 -0.999847
s off
g pick_axe_body:Group2
usemtl pick_axe_body:defaultMat
f 356/359/1249 357/360/1250 328/361/1251 311/362/1252
f 344/363/1253 345/364/1254 331/365/1255 324/366/1256
f 313/367/1257 325/368/1258 353/369/1259 354/370/1260
f 315/371/1261 326/372/1262 352/373/1263 341/374/1264
f 360/375/1265 361/376/1266 314/377/1267 349/378/1268
f 354/370/1269 355/379/1270 342/380/1271 313/367/1272
f 311/362/1273 328/361/1274 329/381/1275 317/382/1276
f 349/378/1277 314/377/1278 319/383/1279 348/384/1280
f 332/385/1281 325/368/1282 313/367/1283 320/386/1284
f 313/367/1285 342/380/1286 343/387/1287 320/386/1288
f 366/388/1289 367/389/1290 330/390/1291 321/391/1292
f 370/392/1293 371/393/1294 323/394/1295 347/395/1296
f 363/396/1297 364/397/1298 324/366/1299 331/365/1300
f 364/397/1301 365/398/1302 344/363/1303 324/366/1304
f 325/368/1305 333/399/1306 362/400/1307 353/369/1308
f 352/373/1309 326/372/1310 334/401/1311 351/402/1312
f 328/361/1313 357/360/1314 358/403/1315 336/404/1316
f 329/381/1317 328/361/1318 336/404/1319 337/405/1320
f 330/390/1321 367/389/1322 368/406/1323 338/407/1324
f 331/365/1325 345/364/1326 346/408/1327 339/409/1328
f 372/410/1329 363/396/1330 331/365/1331 339/409/1332
f 340/411/1333 333/399/1334 325/368/1335 332/385/1336
f 333/399/1337 314/377/1338 361/376/1339 362/400/1340
f 351/402/1341 334/401/1342 316/412/1343 350/413/1344
f 336/404/1345 358/403/1346 359/414/1347 312/415/1348
f 337/405/1349 336/404/1350 312/415/1351 318/416/1352
f 338/407/1353 368/406/1354 369/417/1355 322/418/1356
f 339/409/1357 346/408/1358 347/395/1359 323/394/1360
f 371/393/1361 372/410/1362 339/409/1363 323/394/1364
f 314/377/1365 333/399/1366 340/411/1367 319/383/1368
f 355/379/1369 356/359/1370 311/362/1371 342/380/1372
f 343/387/1373 342/380/1374 311/362/1375 317/382/1376
f 344/363/1377 365/398/1378 366/388/1379 321/391/1380
f 321/391/1381 330/390/1382 345/364/1383 344/363/1384
f 346/419/1385 345/364/1386 330/390/1387 338/407/1388
f 347/420/1389 346/419/1390 338/407/1391 322/418/1392
f 369/417/1393 370/421/1394 347/420/1395 322/418/1396
f 312/415/1397 349/422/1398 348/423/1399 318/416/1400
f 359/414/1401 360/424/1402 349/422/1403 312/415/1404
f 335/425/1405 351/426/1406 350/427/1407 310/428/1408
f 327/429/1409 352/430/1410 351/426/1411 335/425/1412
f 341/374/1413 352/430/1414 327/429/1415 309/431/1416
f 354/370/1417 353/369/1418 326/372/1419 315/371/1420
f 315/371/1421 341/374/1422 355/379/1423 354/370/1424
f 341/374/1425 309/431/1426 356/359/1427 355/379/1428
f 309/431/1429 327/429/1430 357/360/1431 356/359/1432
f 358/403/1433 357/360/1434 327/429/1435 335/425/1436
f 359/414/1437 358/403/1438 335/425/1439 310/428/1440
f 310/428/1441 350/427/1442 360/424/1443 359/414/1444
f 350/413/1445 316/412/1446 361/376/1447 360/375/1448
f 362/400/1449 361/376/1450 316/412/1451 334/401/1452
f 353/369/1453 362/400/1454 334/401/1455 326/372/1456
f 332/385/1457 320/386/1458 364/397/1459 363/396/1460
f 320/386/1461 343/387/1462 365/398/1463 364/397/1464
f 366/388/1465 365/398/1466 343/387/1467 317/382/1468
f 317/382/1469 329/381/1470 367/389/1471 366/388/1472
f 368/406/1473 367/389/1474 329/381/1475 337/405/1476
f 369/417/1477 368/406/1478 337/405/1479 318/416/1480
f 318/416/1481 348/423/1482 370/421/1483 369/417/1484
f 348/384/1485 319/383/1486 371/393/1487 370/392/1488
f 319/383/1489 340/411/1490 372/410/1491 371/393/1492
f 340/411/1493 332/385/1494 363/396/1495 372/410/1496
