# This file uses centimeters as units for non-parametric coordinates.

mtllib Shovel.mtl
g default
v 20.052094 3.496282 91.721909
v 25.668659 3.462886 63.079628
v 24.857347 3.491010 75.434021
v 15.907589 3.334990 100.475258
v 10.114541 3.061742 108.876144
v 2.679216 3.076367 113.999428
v 23.149536 3.496283 83.411774
v 14.079080 2.267573 63.118408
v 13.049520 2.167377 75.483887
v 11.438399 2.065423 83.461624
v 9.781972 2.047845 91.904724
v 8.151240 2.064151 100.148384
v 5.392900 2.377079 108.462761
v 2.205489 2.139612 110.829529
v 20.052094 1.476357 91.721909
v 25.668659 1.442961 63.079628
v 24.857347 1.471085 75.434021
v 15.909300 1.469936 100.475258
v 10.114541 0.786621 108.614349
v 2.679216 0.789760 113.968391
v 23.149536 1.476358 83.411774
v 14.079080 0.247649 63.118408
v 13.049520 0.147453 75.483887
v 11.438399 0.045499 83.461624
v 9.781972 0.027920 91.904724
v 8.151240 0.199097 100.148384
v 5.392900 0.101958 108.200966
v 2.205489 -0.146996 110.798500
v -20.052094 3.496282 91.721909
v -25.668659 3.462886 63.079628
v -24.857347 3.491010 75.434021
v 0.000000 0.634566 63.135021
v -15.907589 3.334990 100.475258
v -10.114541 3.061742 108.876144
v -2.679216 3.076367 113.999428
v 0.000000 2.900120 114.718346
v -23.149536 3.496283 83.411774
v -14.079080 2.267573 63.118408
v -13.049520 2.167377 75.483887
v 0.000000 0.687299 75.483902
v -11.438399 2.065423 83.461624
v 0.000000 0.687298 83.461624
v 0.000000 0.687298 91.904724
v -9.781972 2.047845 91.904724
v 0.000000 0.827395 100.148384
v -8.151240 2.064151 100.148384
v -5.392900 2.377079 108.462761
v 0.000000 1.647518 108.178055
v -2.205489 2.139612 110.829529
v 0.000000 2.130306 111.470261
v -20.052094 1.476357 91.721909
v -25.668659 1.442961 63.079628
v -24.857347 1.471085 75.434021
v 0.000000 -1.385359 63.135021
v -15.909300 1.469936 100.475258
v -10.114541 0.786621 108.614349
v -2.679216 0.789760 113.968391
v 0.000000 0.613511 114.687317
v -23.149536 1.476358 83.411774
v -14.079080 0.247649 63.118408
v -13.049520 0.147453 75.483887
v 0.000000 -1.332626 75.483902
v -11.438399 0.045499 83.461624
v 0.000000 -1.332626 83.461624
v 0.000000 -1.332627 91.904724
v -9.781972 0.027920 91.904724
v 0.000000 -1.037659 100.148384
v -8.151240 0.199097 100.148384
v -5.392900 0.101958 108.200966
v 0.000000 -0.627603 107.916267
v -2.205489 -0.146996 110.798500
v 0.000000 -0.156302 111.439232
vt 0.541661 0.821284
vt 0.500781 0.742460
vt 0.587279 0.743411
vt 0.606920 0.815864
vt 0.481313 0.663189
vt 0.575454 0.667904
vt 0.482381 0.588543
vt 0.570369 0.598173
vt 0.517377 0.510767
vt 0.573471 0.499707
vt 0.688741 0.495171
vt 0.689156 0.599844
vt 0.689422 0.668601
vt 0.689706 0.742581
vt 0.689978 0.813983
vt 0.690238 0.882347
vt 0.640226 0.886334
vt 0.607829 0.892112
vt 0.669081 0.904650
vt 0.671079 0.930027
vt 0.690340 0.909457
vt 0.690438 0.935208
vt 0.536552 0.166744
vt 0.602720 0.169918
vt 0.585417 0.243021
vt 0.501810 0.246131
vt 0.574346 0.317205
vt 0.485072 0.321316
vt 0.566656 0.385737
vt 0.482491 0.392466
vt 0.572876 0.484861
vt 0.507707 0.496960
vt 0.688259 0.382427
vt 0.688672 0.479091
vt 0.687957 0.315279
vt 0.687613 0.242262
vt 0.687258 0.170196
vt 0.634248 0.095839
vt 0.686885 0.098264
vt 0.600395 0.092202
vt 0.663723 0.045302
vt 0.663285 0.074539
vt 0.686543 0.039054
vt 0.686721 0.068773
vt 0.457174 0.665112
vt 0.459491 0.584404
vt 0.663227 0.948090
vt 0.592914 0.905206
vt 0.478482 0.748594
vt 0.690506 0.953177
vt 0.522442 0.831187
vt 0.838350 0.820482
vt 0.773049 0.815415
vt 0.792140 0.742855
vt 0.878632 0.741436
vt 0.803388 0.667282
vt 0.897498 0.662056
vt 0.807938 0.597518
vt 0.895865 0.587411
vt 0.804067 0.499053
vt 0.860273 0.509812
vt 0.740279 0.886064
vt 0.772720 0.891667
vt 0.709757 0.929923
vt 0.711563 0.904536
vt 0.837986 0.165667
vt 0.873525 0.244868
vt 0.789839 0.242325
vt 0.771812 0.169313
vt 0.890979 0.320000
vt 0.801611 0.316468
vt 0.894200 0.391197
vt 0.809919 0.384985
vt 0.869846 0.495933
vt 0.804538 0.484193
vt 0.739511 0.095438
vt 0.773344 0.091543
vt 0.710226 0.074354
vt 0.709452 0.045107
vt 0.918728 0.583149
vt 0.921653 0.663850
vt 0.787734 0.904681
vt 0.717745 0.947944
vt 0.900978 0.747450
vt 0.857644 0.830281
vn 0.108885 0.989093 0.099189
vn 0.062429 0.996977 0.046266
vn -0.136963 0.990187 -0.027751
vn -0.145998 0.987824 -0.053746
vn 0.062493 0.997619 0.029185
vn -0.122521 0.992304 -0.017914
vn 0.065826 0.997757 0.012193
vn -0.112953 0.993575 -0.007097
vn 0.071535 0.986190 -0.149375
vn -0.109435 0.980126 -0.165458
vn 0.000000 0.983328 -0.181840
vn 0.000000 0.999993 -0.003793
vn 0.000000 0.999965 -0.008373
vn 0.000000 0.999853 -0.017124
vn 0.000000 0.998571 -0.053436
vn 0.000000 0.995558 -0.094148
vn -0.147199 0.982852 -0.111058
vn 0.200770 0.944057 0.261627
vn -0.132214 0.976162 -0.172126
vn 0.346546 0.720659 0.600463
vn -0.000000 0.983713 -0.179747
vn -0.000000 0.823447 0.567394
vn 0.379817 -0.904959 0.191803
vn 0.146835 -0.988128 0.045189
vn 0.136884 -0.989930 0.036083
vn 0.318422 -0.940114 0.121622
vn 0.122521 -0.992304 0.017914
vn 0.293874 -0.952783 0.076433
vn 0.112953 -0.993575 0.007097
vn 0.276829 -0.960438 0.030412
vn 0.108813 -0.980882 -0.161342
vn 0.272783 -0.949476 -0.155192
vn 0.000000 -0.999993 0.003794
vn 0.000000 -0.988309 -0.152465
vn 0.000000 -0.999965 0.008373
vn -0.000000 -0.999672 0.025592
vn -0.000000 -0.999052 0.043533
vn 0.149880 -0.985875 0.074742
vn -0.000000 -0.998645 0.052050
vn 0.428221 -0.838042 0.338100
vn 0.419186 -0.581968 0.696847
vn 0.134775 -0.977306 0.163427
vn 0.000000 -0.668071 0.744097
vn 0.000000 -0.985233 0.171221
vn -0.108885 0.989093 0.099189
vn 0.145998 0.987824 -0.053746
vn 0.136963 0.990187 -0.027751
vn -0.062428 0.996977 0.046266
vn 0.122521 0.992304 -0.017914
vn -0.062493 0.997619 0.029185
vn 0.112953 0.993575 -0.007097
vn -0.065826 0.997757 0.012193
vn 0.109435 0.980126 -0.165458
vn -0.071535 0.986190 -0.149375
vn 0.147199 0.982852 -0.111058
vn -0.200770 0.944057 0.261627
vn -0.346546 0.720659 0.600463
vn 0.132214 0.976162 -0.172126
vn -0.379817 -0.904959 0.191803
vn -0.318422 -0.940114 0.121622
vn -0.136884 -0.989930 0.036083
vn -0.146835 -0.988128 0.045189
vn -0.293874 -0.952783 0.076433
vn -0.122521 -0.992304 0.017914
vn -0.276829 -0.960438 0.030412
vn -0.112953 -0.993575 0.007097
vn -0.272783 -0.949476 -0.155192
vn -0.108813 -0.980882 -0.161342
vn -0.149880 -0.985875 0.074742
vn -0.428222 -0.838042 0.338100
vn -0.134775 -0.977306 0.163427
vn -0.419187 -0.581968 0.696847
s 1
g polySurface2 Shovel:Mesh
usemtl lambert4SG
f 4/1/1 1/2/2 11/3/3 12/4/4
f 11/3/3 1/2/2 7/5/5 10/6/6
f 10/6/6 7/5/5 3/7/7 9/8/8
f 3/7/7 2/9/9 8/10/10 9/8/8
f 9/8/8 8/10/10 32/11/11 40/12/12
f 40/12/12 42/13/13 10/6/6 9/8/8
f 10/6/6 42/13/13 43/14/14 11/3/3
f 11/3/3 43/14/14 45/15/15 12/4/4
f 45/15/15 48/16/16 13/17/17 12/4/4
f 13/17/17 5/18/18 4/1/1 12/4/4
f 13/17/17 14/19/19 6/20/20 5/18/18
f 6/20/20 14/19/19 50/21/21 36/22/22
f 50/21/21 14/19/19 13/17/17 48/16/16
f 18/23/23 26/24/24 25/25/25 15/26/26
f 25/25/25 24/27/27 21/28/28 15/26/26
f 24/27/27 23/29/29 17/30/30 21/28/28
f 17/30/30 23/29/29 22/31/31 16/32/32
f 23/29/29 62/33/33 54/34/34 22/31/31
f 62/33/33 23/29/29 24/27/27 64/35/35
f 24/27/27 25/25/25 65/36/36 64/35/35
f 25/25/25 26/24/24 67/37/37 65/36/36
f 67/37/37 26/24/24 27/38/38 70/39/39
f 27/38/38 26/24/24 18/23/23 19/40/40
f 27/38/38 19/40/40 20/41/41 28/42/42
f 20/41/41 58/43/43 72/44/44 28/42/42
f 72/44/44 70/39/39 27/38/38 28/42/42
f 3/7/7 7/5/5 21/45/28 17/46/30
f 5/18/18 6/20/20 20/47/41 19/48/40
f 2/9/9 3/7/7 17/46/30 16/32/32
f 7/5/5 1/2/2 15/49/26 21/45/28
f 32/11/11 8/10/10 22/31/31 54/34/34
f 6/20/20 36/22/22 58/50/43 20/47/41
f 4/1/1 5/18/18 19/48/40 18/51/23
f 8/10/10 2/9/9 16/32/32 22/31/31
f 1/2/2 4/1/1 18/51/23 15/49/26
f 33/52/45 46/53/46 44/54/47 29/55/48
f 44/54/47 41/56/49 37/57/50 29/55/48
f 41/56/49 39/58/51 31/59/52 37/57/50
f 31/59/52 39/58/51 38/60/53 30/61/54
f 39/58/51 40/12/12 32/11/11 38/60/53
f 40/12/12 39/58/51 41/56/49 42/13/13
f 41/56/49 44/54/47 43/14/14 42/13/13
f 44/54/47 46/53/46 45/15/15 43/14/14
f 45/15/15 46/53/46 47/62/55 48/16/16
f 47/62/55 46/53/46 33/52/45 34/63/56
f 47/62/55 34/63/56 35/64/57 49/65/58
f 35/64/57 36/22/22 50/21/21 49/65/58
f 50/21/21 48/16/16 47/62/55 49/65/58
f 55/66/59 51/67/60 66/68/61 68/69/62
f 66/68/61 51/67/60 59/70/63 63/71/64
f 63/71/64 59/70/63 53/72/65 61/73/66
f 53/72/65 52/74/67 60/75/68 61/73/66
f 61/73/66 60/75/68 54/34/34 62/33/33
f 62/33/33 64/35/35 63/71/64 61/73/66
f 63/71/64 64/35/35 65/36/36 66/68/61
f 66/68/61 65/36/36 67/37/37 68/69/62
f 67/37/37 70/39/39 69/76/69 68/69/62
f 69/76/69 56/77/70 55/66/59 68/69/62
f 69/76/69 71/78/71 57/79/72 56/77/70
f 57/79/72 71/78/71 72/44/44 58/43/43
f 72/44/44 71/78/71 69/76/69 70/39/39
f 31/59/52 53/80/65 59/81/63 37/57/50
f 34/63/56 56/82/70 57/83/72 35/64/57
f 30/61/54 52/74/67 53/80/65 31/59/52
f 37/57/50 59/81/63 51/84/60 29/55/48
f 32/11/11 54/34/34 60/75/68 38/60/53
f 35/64/57 57/83/72 58/50/43 36/22/22
f 33/52/45 55/85/59 56/82/70 34/63/56
f 38/60/53 60/75/68 52/74/67 30/61/54
f 29/55/48 51/84/60 55/85/59 33/52/45
g default
v 0.000000 -4.206000 -114.982300
v -2.974096 -2.974088 -114.982300
v -4.206007 0.000009 -114.982300
v -2.974096 2.974105 -114.982300
v 0.000001 4.206017 -114.982300
v 2.974098 2.974104 -114.982300
v 4.206008 0.000009 -114.982300
v 2.974098 -2.974087 -114.982300
v 0.000000 -2.795132 -116.531853
v -1.976463 -1.976455 -116.531853
v -2.795141 0.000009 -116.531853
v -1.976463 1.976472 -116.531853
v 0.000001 2.795150 -116.531853
v 1.976464 1.976471 -116.531853
v 2.795142 0.000009 -116.531853
v 1.976464 -1.976454 -116.531853
v 0.000001 0.000009 -117.188133
v -3.641630 -0.000004 48.060738
v -2.575020 -2.575024 48.060738
v 0.000000 -3.641634 48.060738
v -2.575020 2.575017 48.060738
v 0.000001 3.641626 48.060738
v 2.575021 2.575016 48.060738
v 3.641630 -0.000004 48.060738
v 2.575021 -2.575023 48.060738
v -4.051033 -0.000004 56.608654
v -2.864506 -2.864511 56.608654
v 0.000000 -4.051038 56.608654
v -2.864506 2.864502 56.608654
v 0.000001 4.051029 56.608654
v 2.864507 2.864501 56.608654
v 4.051033 -0.000004 56.608654
v 2.864507 -2.864510 56.608654
v -3.918834 -0.000005 63.050701
v -2.771027 -2.771033 63.050701
v 0.000000 -3.918839 63.050701
v -2.771027 2.771023 63.050701
v 0.000001 3.918829 63.050701
v 2.771028 2.771023 63.050701
v 3.918835 -0.000005 63.050701
v 2.771028 -2.771032 63.050701
v -2.784820 -0.000005 71.115341
v -1.969163 -1.969169 71.115349
v 0.000000 -2.784826 71.115341
v -1.969163 1.969158 71.115349
v 0.000000 2.784815 71.115341
v 1.969164 1.969158 71.115349
v 2.784821 -0.000005 71.115341
v 1.969164 -1.969168 71.115349
v -0.813910 -0.000006 79.336479
v -0.584934 -0.584940 79.298363
v 0.000000 -0.813916 79.336479
v -0.584934 0.584929 79.298363
v 0.000000 0.813905 79.336479
v 0.584935 0.584929 79.298363
v 0.813911 -0.000006 79.336479
v 0.584935 -0.584940 79.298363
v 0.000000 -0.000006 80.526466
v 0.000001 3.014100 22.446011
v 2.131290 2.131291 22.446011
v 3.014098 0.000001 22.446011
v 2.131290 -2.131289 22.446011
v 0.000000 -3.014097 22.446011
v -2.131289 -2.131290 22.446011
v -3.014098 0.000001 22.446011
v -2.131289 2.131292 22.446011
v 0.000001 3.179473 -69.384308
v 2.248226 2.248230 -69.384308
v 3.179470 0.000005 -69.384308
v 2.248226 -2.248222 -69.384308
v 0.000000 -3.179465 -69.384308
v -2.248225 -2.248223 -69.384308
v -3.179470 0.000005 -69.384308
v -2.248224 2.248232 -69.384308
vt 0.283476 0.926387
vt 0.312917 0.931099
vt 0.303074 0.942477
vt 0.271629 0.938721
vt 0.253627 0.921041
vt 0.247423 0.930520
vt 0.226532 0.919497
vt 0.227006 0.928353
vt 0.200140 0.921476
vt 0.206641 0.930633
vt 0.172152 0.926422
vt 0.181905 0.939455
vt 0.139951 0.931622
vt 0.150842 0.944649
vt 0.104457 0.939071
vt 0.123156 0.951662
vt 0.345118 0.937597
vt 0.328286 0.947870
vt 0.263793 0.957752
vt 0.228200 0.966630
vt 0.191653 0.958527
vt 0.227338 0.944176
vt 0.308607 0.170514
vt 0.349490 0.169534
vt 0.268279 0.171181
vt 0.228170 0.171389
vt 0.187960 0.171080
vt 0.147319 0.170263
vt 0.105919 0.169029
vt 0.065333 0.167738
vt 0.391037 0.168505
vt 0.302376 0.129537
vt 0.340889 0.126917
vt 0.265183 0.131058
vt 0.228523 0.131473
vt 0.191789 0.130766
vt 0.154425 0.128911
vt 0.381784 0.123161
vt 0.074248 0.121764
vt 0.115649 0.125889
vt 0.292953 0.100012
vt 0.325996 0.095979
vt 0.260778 0.102279
vt 0.228889 0.102919
vt 0.196850 0.101965
vt 0.164580 0.099311
vt 0.360269 0.089946
vt 0.097140 0.088246
vt 0.131519 0.094825
vt 0.273959 0.064863
vt 0.295777 0.060160
vt 0.252250 0.067453
vt 0.230016 0.068148
vt 0.206392 0.067007
vt 0.184216 0.064035
vt 0.317528 0.052987
vt 0.142248 0.051613
vt 0.163023 0.059015
vt 0.240030 0.029584
vt 0.245404 0.027959
vt 0.235070 0.032235
vt 0.229796 0.033127
vt 0.224761 0.032112
vt 0.220328 0.029623
vt 0.250097 0.025755
vt 0.210293 0.025641
vt 0.214910 0.027925
vt 0.239175 0.025488
vt 0.229943 0.029396
vt 0.221294 0.025660
vt 0.230161 0.023768
vt 0.190635 0.335865
vt 0.227810 0.335672
vt 0.265061 0.335848
vt 0.303088 0.336502
vt 0.341459 0.336772
vt 0.073925 0.337121
vt 0.380953 0.337396
vt 0.113392 0.336493
vt 0.152772 0.336314
vt 0.195972 0.664719
vt 0.227092 0.663523
vt 0.258640 0.664468
vt 0.292075 0.667756
vt 0.325431 0.670520
vt 0.091070 0.675150
vt 0.360830 0.674443
vt 0.128307 0.670692
vt 0.163655 0.667693
vn 0.707105 -0.707105 -0.002033
vn 0.000000 -0.999998 -0.002033
vn -0.000002 -0.530569 -0.847642
vn 0.390642 -0.390643 -0.833545
vn 0.999998 -0.000000 -0.002033
vn 0.530570 -0.000000 -0.847641
vn 0.707105 0.707105 -0.002033
vn 0.390645 0.390643 -0.833544
vn 0.000000 0.999998 -0.002033
vn -0.000000 0.530569 -0.847642
vn -0.707105 0.707105 -0.002033
vn -0.390644 0.390643 -0.833544
vn -0.999998 0.000000 -0.002033
vn -0.530571 0.000000 -0.847641
vn -0.707105 -0.707105 -0.002033
vn -0.390646 -0.390642 -0.833543
vn -0.000001 -0.000000 -1.000000
vn 0.707075 -0.707075 0.009532
vn 0.000000 -0.999955 0.009532
vn 0.999955 -0.000000 0.009532
vn 0.707075 0.707075 0.009532
vn 0.000000 0.999955 0.009532
vn -0.707075 0.707075 0.009532
vn -0.999955 0.000000 0.009532
vn -0.707075 -0.707075 0.009532
vn 0.000000 -0.999517 -0.031079
vn 0.706765 -0.706765 -0.031079
vn 0.706995 -0.706995 -0.017782
vn 0.000000 -0.999842 -0.017782
vn 0.999517 -0.000000 -0.031079
vn 0.999842 0.000000 -0.017782
vn 0.706765 0.706765 -0.031079
vn 0.706995 0.706995 -0.017781
vn 0.000000 0.999517 -0.031079
vn 0.000000 0.999842 -0.017781
vn -0.706765 0.706765 -0.031079
vn -0.706995 0.706995 -0.017781
vn -0.706765 -0.706765 -0.031079
vn -0.706995 -0.706995 -0.017782
vn -0.999517 -0.000000 -0.031079
vn -0.999842 0.000000 -0.017781
vn 0.704802 -0.704803 0.080668
vn 0.000000 -0.996741 0.080668
vn 0.996741 -0.000000 0.080668
vn 0.704802 0.704802 0.080668
vn 0.000000 0.996741 0.080668
vn -0.704802 0.704802 0.080668
vn -0.704802 -0.704802 0.080668
vn -0.996741 0.000000 0.080668
vn 0.696691 -0.696691 0.171004
vn 0.000000 -0.985282 0.170938
vn 0.985282 -0.000000 0.170938
vn 0.696691 0.696691 0.171005
vn 0.000000 0.985282 0.170938
vn -0.696691 0.696691 0.171004
vn -0.696691 -0.696691 0.171004
vn -0.985282 0.000000 0.170938
vn 0.684615 -0.684615 0.250211
vn -0.000000 -0.965839 0.259143
vn 0.965839 -0.000000 0.259143
vn 0.684615 0.684614 0.250211
vn 0.000000 0.965839 0.259143
vn -0.684615 0.684614 0.250211
vn -0.684615 -0.684614 0.250211
vn -0.965839 -0.000000 0.259143
vn 0.000000 0.000000 1.000000
vn 0.707100 0.707100 -0.004290
vn 0.000000 0.999991 -0.004290
vn 0.999991 -0.000000 -0.004290
vn 0.707100 -0.707100 -0.004290
vn 0.000000 -0.999991 -0.004290
vn -0.707100 -0.707100 -0.004290
vn -0.999991 0.000000 -0.004290
vn -0.707100 0.707100 -0.004290
s 1
g Shovel:Mesh polySurface1
usemtl lambert4SG
f 80/86/73 73/87/74 81/88/75 88/89/76
f 79/90/77 80/86/73 88/89/76 87/91/78
f 78/92/79 79/90/77 87/91/78 86/93/80
f 77/94/81 78/92/79 86/93/80 85/95/82
f 76/96/83 77/94/81 85/95/82 84/97/84
f 75/98/85 76/96/83 84/97/84 83/99/86
f 74/100/87 75/98/85 83/99/86 82/101/88
f 73/87/74 74/102/87 82/103/88 81/88/75
f 81/104/75 82/105/88 83/106/86 89/107/89
f 83/106/86 84/97/84 85/95/82 89/107/89
f 85/95/82 86/93/80 87/91/78 89/107/89
f 87/91/78 88/89/76 81/104/75 89/107/89
f 73/87/74 80/86/73 142/169/90 143/170/91
f 80/86/73 79/90/77 141/168/92 142/169/90
f 79/90/77 78/92/79 140/167/93 141/168/92
f 78/92/79 77/94/81 139/166/94 140/167/93
f 77/94/81 76/96/83 146/174/95 139/166/94
f 76/96/83 75/98/85 145/173/96 146/174/95
f 75/98/85 74/100/87 144/171/97 145/173/96
f 74/102/87 73/87/74 143/170/91 144/172/97
f 92/109/98 97/108/99 105/117/100 100/118/101
f 97/108/99 96/110/102 104/119/103 105/117/100
f 96/110/102 95/111/104 103/120/105 104/119/103
f 95/111/104 94/112/106 102/121/107 103/120/105
f 94/112/106 93/113/108 101/122/109 102/121/107
f 91/116/110 92/109/98 100/118/101 99/123/111
f 90/114/112 91/115/110 99/124/111 98/125/113
f 93/113/108 90/114/112 98/125/113 101/122/109
f 100/118/101 105/117/100 113/126/114 108/127/115
f 105/117/100 104/119/103 112/128/116 113/126/114
f 104/119/103 103/120/105 111/129/117 112/128/116
f 103/120/105 102/121/107 110/130/118 111/129/117
f 102/121/107 101/122/109 109/131/119 110/130/118
f 99/123/111 100/118/101 108/127/115 107/132/120
f 98/125/113 99/124/111 107/133/120 106/134/121
f 101/122/109 98/125/113 106/134/121 109/131/119
f 108/127/115 113/126/114 121/135/122 116/136/123
f 113/126/114 112/128/116 120/137/124 121/135/122
f 112/128/116 111/129/117 119/138/125 120/137/124
f 111/129/117 110/130/118 118/139/126 119/138/125
f 110/130/118 109/131/119 117/140/127 118/139/126
f 107/132/120 108/127/115 116/136/123 115/141/128
f 106/134/121 107/133/120 115/142/128 114/143/129
f 109/131/119 106/134/121 114/143/129 117/140/127
f 116/136/123 121/135/122 129/144/130 124/145/131
f 121/135/122 120/137/124 128/146/132 129/144/130
f 120/137/124 119/138/125 127/147/133 128/146/132
f 119/138/125 118/139/126 126/148/134 127/147/133
f 118/139/126 117/140/127 125/149/135 126/148/134
f 115/141/128 116/136/123 124/145/131 123/150/136
f 114/143/129 115/142/128 123/151/136 122/152/137
f 117/140/127 114/143/129 122/152/137 125/149/135
f 124/153/131 130/154/138 122/155/137 123/156/136
f 128/146/132 130/154/138 124/153/131 129/144/130
f 126/148/134 130/154/138 128/146/132 127/147/133
f 122/155/137 130/154/138 126/148/134 125/149/135
f 132/158/139 131/157/140 94/112/106 95/111/104
f 133/159/141 132/158/139 95/111/104 96/110/102
f 134/160/142 133/159/141 96/110/102 97/108/99
f 135/161/143 134/160/142 97/108/99 92/109/98
f 136/163/144 135/161/143 92/109/98 91/116/110
f 137/164/145 136/162/144 91/115/110 90/114/112
f 138/165/146 137/164/145 90/114/112 93/113/108
f 131/157/140 138/165/146 93/113/108 94/112/106
f 140/167/93 139/166/94 131/157/140 132/158/139
f 141/168/92 140/167/93 132/158/139 133/159/141
f 142/169/90 141/168/92 133/159/141 134/160/142
f 143/170/91 142/169/90 134/160/142 135/161/143
f 144/172/97 143/170/91 135/161/143 136/163/144
f 145/173/96 144/171/97 136/162/144 137/164/145
f 146/174/95 145/173/96 137/164/145 138/165/146
f 139/166/94 146/174/95 138/165/146 131/157/140
